%YAML 1.1
%TAG !u! tag:unity3d.com,2011:
--- !u!1 &182886098827666608
GameObject:
  m_ObjectHideFlags: 0
  m_CorrespondingSourceObject: {fileID: 0}
  m_PrefabInstance: {fileID: 0}
  m_PrefabAsset: {fileID: 0}
  serializedVersion: 6
  m_Component:
  - component: {fileID: 361020150149000171}
  m_Layer: 6
  m_Name: FrontBelly
  m_TagString: Untagged
  m_Icon: {fileID: 0}
  m_NavMeshLayer: 0
  m_StaticEditorFlags: 0
  m_IsActive: 1
--- !u!4 &361020150149000171
Transform:
  m_ObjectHideFlags: 0
  m_CorrespondingSourceObject: {fileID: 0}
  m_PrefabInstance: {fileID: 0}
  m_PrefabAsset: {fileID: 0}
  m_GameObject: {fileID: 182886098827666608}
  m_LocalRotation: {x: -0.015762473, y: -0.7069311, z: -0.015762473, w: 0.7069311}
  m_LocalPosition: {x: 0.004094967, y: -0.27914742, z: -2.8367557e-16}
  m_LocalScale: {x: 1, y: 1, z: 1}
  m_Children: []
  m_Father: {fileID: 6452747152157738658}
  m_RootOrder: 0
  m_LocalEulerAnglesHint: {x: 0, y: 0, z: 0}
--- !u!1 &190318760715635431
GameObject:
  m_ObjectHideFlags: 0
  m_CorrespondingSourceObject: {fileID: 0}
  m_PrefabInstance: {fileID: 0}
  m_PrefabAsset: {fileID: 0}
  serializedVersion: 6
  m_Component:
  - component: {fileID: 7483853432533810658}
  m_Layer: 6
  m_Name: upperJaw_l
  m_TagString: Untagged
  m_Icon: {fileID: 0}
  m_NavMeshLayer: 0
  m_StaticEditorFlags: 0
  m_IsActive: 1
--- !u!4 &7483853432533810658
Transform:
  m_ObjectHideFlags: 0
  m_CorrespondingSourceObject: {fileID: 0}
  m_PrefabInstance: {fileID: 0}
  m_PrefabAsset: {fileID: 0}
  m_GameObject: {fileID: 190318760715635431}
  m_LocalRotation: {x: 0.70580983, y: -0.0022091598, z: 0.0003184791, w: 0.7083978}
  m_LocalPosition: {x: -0.24131815, y: -0.13323142, z: 0.0005894331}
  m_LocalScale: {x: 1, y: 1, z: 1}
  m_Children: []
  m_Father: {fileID: 7984358920706417436}
  m_RootOrder: 3
  m_LocalEulerAnglesHint: {x: 0, y: 0, z: 0}
--- !u!1 &284318935731213117
GameObject:
  m_ObjectHideFlags: 0
  m_CorrespondingSourceObject: {fileID: 0}
  m_PrefabInstance: {fileID: 0}
  m_PrefabAsset: {fileID: 0}
  serializedVersion: 6
  m_Component:
  - component: {fileID: 4068756319112088880}
  m_Layer: 6
  m_Name: hornC_02_r
  m_TagString: Untagged
  m_Icon: {fileID: 0}
  m_NavMeshLayer: 0
  m_StaticEditorFlags: 0
  m_IsActive: 1
--- !u!4 &4068756319112088880
Transform:
  m_ObjectHideFlags: 0
  m_CorrespondingSourceObject: {fileID: 0}
  m_PrefabInstance: {fileID: 0}
  m_PrefabAsset: {fileID: 0}
  m_GameObject: {fileID: 284318935731213117}
  m_LocalRotation: {x: 0, y: -0.28746313, z: -0, w: 0.95779175}
  m_LocalPosition: {x: 0.35611197, y: 3.100587e-17, z: -0.0000042392044}
  m_LocalScale: {x: 1, y: 1, z: 1}
  m_Children: []
  m_Father: {fileID: 6934331374597603226}
  m_RootOrder: 0
  m_LocalEulerAnglesHint: {x: 0, y: 0, z: 0}
--- !u!1 &447422451530270946
GameObject:
  m_ObjectHideFlags: 0
  m_CorrespondingSourceObject: {fileID: 0}
  m_PrefabInstance: {fileID: 0}
  m_PrefabAsset: {fileID: 0}
  serializedVersion: 6
  m_Component:
  - component: {fileID: 560071389976804984}
  m_Layer: 6
  m_Name: foot_r
  m_TagString: Untagged
  m_Icon: {fileID: 0}
  m_NavMeshLayer: 0
  m_StaticEditorFlags: 0
  m_IsActive: 1
--- !u!4 &560071389976804984
Transform:
  m_ObjectHideFlags: 0
  m_CorrespondingSourceObject: {fileID: 0}
  m_PrefabInstance: {fileID: 0}
  m_PrefabAsset: {fileID: 0}
  m_GameObject: {fileID: 447422451530270946}
  m_LocalRotation: {x: -0.019574154, y: -0.01433758, z: -0.016081778, w: 0.9995763}
  m_LocalPosition: {x: -0.15340334, y: -0.017944258, z: 0.001143231}
  m_LocalScale: {x: 1, y: 1, z: 1}
  m_Children:
  - {fileID: 3642371643029039977}
  m_Father: {fileID: 8232324365434380373}
  m_RootOrder: 0
  m_LocalEulerAnglesHint: {x: 0, y: 0, z: 0}
--- !u!1 &550064528610584374
GameObject:
  m_ObjectHideFlags: 0
  m_CorrespondingSourceObject: {fileID: 0}
  m_PrefabInstance: {fileID: 0}
  m_PrefabAsset: {fileID: 0}
  serializedVersion: 6
  m_Component:
  - component: {fileID: 8571771992253332423}
  m_Layer: 6
  m_Name: hornB_01_r
  m_TagString: Untagged
  m_Icon: {fileID: 0}
  m_NavMeshLayer: 0
  m_StaticEditorFlags: 0
  m_IsActive: 1
--- !u!4 &8571771992253332423
Transform:
  m_ObjectHideFlags: 0
  m_CorrespondingSourceObject: {fileID: 0}
  m_PrefabInstance: {fileID: 0}
  m_PrefabAsset: {fileID: 0}
  m_GameObject: {fileID: 550064528610584374}
  m_LocalRotation: {x: 0.40998435, y: 0.019879602, z: 0.9108058, w: -0.044163775}
  m_LocalPosition: {x: -0.016146528, y: 0.0049800063, z: 0.207973}
  m_LocalScale: {x: 1, y: 1, z: 1}
  m_Children:
  - {fileID: 6878682751172195402}
  m_Father: {fileID: 6911241748742393243}
  m_RootOrder: 6
  m_LocalEulerAnglesHint: {x: 0, y: 0, z: 0}
--- !u!1 &758232049312022372
GameObject:
  m_ObjectHideFlags: 0
  m_CorrespondingSourceObject: {fileID: 0}
  m_PrefabInstance: {fileID: 0}
  m_PrefabAsset: {fileID: 0}
  serializedVersion: 6
  m_Component:
  - component: {fileID: 1490259298238108995}
  m_Layer: 6
  m_Name: hornB_01_l
  m_TagString: Untagged
  m_Icon: {fileID: 0}
  m_NavMeshLayer: 0
  m_StaticEditorFlags: 0
  m_IsActive: 1
--- !u!4 &1490259298238108995
Transform:
  m_ObjectHideFlags: 0
  m_CorrespondingSourceObject: {fileID: 0}
  m_PrefabInstance: {fileID: 0}
  m_PrefabAsset: {fileID: 0}
  m_GameObject: {fileID: 758232049312022372}
  m_LocalRotation: {x: 0.019879602, y: -0.40998435, z: 0.044163775, w: 0.9108058}
  m_LocalPosition: {x: -0.016145382, y: 0.0049800063, z: -0.20797296}
  m_LocalScale: {x: 1, y: 1, z: 1}
  m_Children:
  - {fileID: 111471470414272800}
  m_Father: {fileID: 6911241748742393243}
  m_RootOrder: 5
  m_LocalEulerAnglesHint: {x: 0, y: 0, z: 0}
--- !u!1 &768788796576229096
GameObject:
  m_ObjectHideFlags: 0
  m_CorrespondingSourceObject: {fileID: 0}
  m_PrefabInstance: {fileID: 0}
  m_PrefabAsset: {fileID: 0}
  serializedVersion: 6
  m_Component:
  - component: {fileID: 2237540456238132906}
  - component: {fileID: 5166109213967106355}
  m_Layer: 6
  m_Name: Tail06
  m_TagString: Untagged
  m_Icon: {fileID: 0}
  m_NavMeshLayer: 0
  m_StaticEditorFlags: 0
  m_IsActive: 1
--- !u!4 &2237540456238132906
Transform:
  m_ObjectHideFlags: 0
  m_CorrespondingSourceObject: {fileID: 0}
  m_PrefabInstance: {fileID: 0}
  m_PrefabAsset: {fileID: 0}
  m_GameObject: {fileID: 768788796576229096}
  m_LocalRotation: {x: 0, y: -0, z: -0, w: 1}
  m_LocalPosition: {x: -0, y: 0, z: 0}
  m_LocalScale: {x: 1, y: 1, z: 1}
  m_Children: []
  m_Father: {fileID: 568313055959828704}
  m_RootOrder: 0
  m_LocalEulerAnglesHint: {x: 0, y: 0, z: 0}
--- !u!137 &5166109213967106355
SkinnedMeshRenderer:
  m_ObjectHideFlags: 0
  m_CorrespondingSourceObject: {fileID: 0}
  m_PrefabInstance: {fileID: 0}
  m_PrefabAsset: {fileID: 0}
  m_GameObject: {fileID: 768788796576229096}
  m_Enabled: 1
  m_CastShadows: 1
  m_ReceiveShadows: 1
  m_DynamicOccludee: 1
  m_StaticShadowCaster: 0
  m_MotionVectors: 1
  m_LightProbeUsage: 1
  m_ReflectionProbeUsage: 1
  m_RayTracingMode: 0
  m_RayTraceProcedural: 0
  m_RenderingLayerMask: 1
  m_RendererPriority: 0
  m_Materials:
  - {fileID: 2100000, guid: f5fb83cc0815eec429d8e3c27094e525, type: 2}
  m_StaticBatchInfo:
    firstSubMesh: 0
    subMeshCount: 0
  m_StaticBatchRoot: {fileID: 0}
  m_ProbeAnchor: {fileID: 0}
  m_LightProbeVolumeOverride: {fileID: 0}
  m_ScaleInLightmap: 1
  m_ReceiveGI: 1
  m_PreserveUVs: 0
  m_IgnoreNormalsForChartDetection: 0
  m_ImportantGI: 0
  m_StitchLightmapSeams: 1
  m_SelectedEditorRenderState: 3
  m_MinimumChartSize: 4
  m_AutoUVMaxDistance: 0.5
  m_AutoUVMaxAngle: 89
  m_LightmapParameters: {fileID: 0}
  m_SortingLayerID: 0
  m_SortingLayer: 0
  m_SortingOrder: 0
  serializedVersion: 2
  m_Quality: 0
  m_UpdateWhenOffscreen: 0
  m_SkinnedMotionVectors: 1
  m_Mesh: {fileID: -4478018820400299011, guid: 7e6fcf30eabcaec43bb46e1d611f9df5, type: 3}
  m_Bones:
  - {fileID: 9043589632627961925}
  - {fileID: 6774633103625404552}
  - {fileID: 6452747152157738658}
  - {fileID: 5826281215127747192}
  - {fileID: 1908796047003164183}
  - {fileID: 8941037273411902607}
  - {fileID: 6911241748742393243}
  - {fileID: 3084064516644617199}
  - {fileID: 5369863300984200627}
  - {fileID: 4370629894795678910}
  - {fileID: 3731956662735818994}
  - {fileID: 7485908624652795727}
  - {fileID: 3133067334561422514}
  - {fileID: 8360814122869198876}
  - {fileID: 1490259298238108995}
  - {fileID: 111471470414272800}
  - {fileID: 1617857800121189459}
  - {fileID: 2495930890019992819}
  - {fileID: 4187420402931764656}
  - {fileID: 3073728468277439952}
  - {fileID: 3008700734592211699}
  - {fileID: 6934331374597603226}
  - {fileID: 4068756319112088880}
  - {fileID: 8571771992253332423}
  - {fileID: 6878682751172195402}
  - {fileID: 2305774594062624554}
  - {fileID: 5334230550543772557}
  - {fileID: 7445394513094630820}
  - {fileID: 6621843516108669347}
  - {fileID: 7984358920706417436}
  - {fileID: 729765173281850776}
  - {fileID: 94898364965929039}
  - {fileID: 7483853432533810658}
  - {fileID: 5899325427943692780}
  - {fileID: 2247638118362572083}
  - {fileID: 1162167969366848456}
  - {fileID: 1455654243838238831}
  - {fileID: 2267281236069501966}
  - {fileID: 6886303157918058656}
  - {fileID: 2750957032992240303}
  - {fileID: 6206285906987827307}
  - {fileID: 5533906102648240451}
  - {fileID: 361020150149000171}
  - {fileID: 7521081211250957379}
  - {fileID: 2667347841406956250}
  - {fileID: 9128612315683750238}
  - {fileID: 4695395914520231316}
  - {fileID: 6315707854114896393}
  - {fileID: 7617020266490363076}
  - {fileID: 1531385316315636189}
  - {fileID: 5163321031199741170}
  - {fileID: 8872634055185608102}
  - {fileID: 8232324365434380373}
  - {fileID: 560071389976804984}
  - {fileID: 3642371643029039977}
  m_BlendShapeWeights: []
  m_RootBone: {fileID: 9043589632627961925}
  m_AABB:
    m_Center: {x: 0.000000029802322, y: 0.74138796, z: 0.30943686}
    m_Extent: {x: 0.21351725, y: 0.58004844, z: 0.451478}
  m_DirtyAABB: 0
--- !u!1 &781785114081897618
GameObject:
  m_ObjectHideFlags: 0
  m_CorrespondingSourceObject: {fileID: 0}
  m_PrefabInstance: {fileID: 0}
  m_PrefabAsset: {fileID: 0}
  serializedVersion: 6
  m_Component:
  - component: {fileID: 4695395914520231316}
  m_Layer: 6
  m_Name: ball_l
  m_TagString: Untagged
  m_Icon: {fileID: 0}
  m_NavMeshLayer: 0
  m_StaticEditorFlags: 0
  m_IsActive: 1
--- !u!4 &4695395914520231316
Transform:
  m_ObjectHideFlags: 0
  m_CorrespondingSourceObject: {fileID: 0}
  m_PrefabInstance: {fileID: 0}
  m_PrefabAsset: {fileID: 0}
  m_GameObject: {fileID: 781785114081897618}
  m_LocalRotation: {x: -0.018653171, y: -0.018653171, z: 0.7068607, w: 0.7068607}
  m_LocalPosition: {x: 0.018659662, y: -0.08321956, z: 0.0010733596}
  m_LocalScale: {x: 1, y: 1, z: 1}
  m_Children: []
  m_Father: {fileID: 9128612315683750238}
  m_RootOrder: 0
  m_LocalEulerAnglesHint: {x: 0, y: 0, z: 0}
--- !u!1 &802856092909269692
GameObject:
  m_ObjectHideFlags: 0
  m_CorrespondingSourceObject: {fileID: 0}
  m_PrefabInstance: {fileID: 0}
  m_PrefabAsset: {fileID: 0}
  serializedVersion: 6
  m_Component:
  - component: {fileID: 4461687876751035574}
  - component: {fileID: 79875863991108083}
  m_Layer: 6
  m_Name: MainBody03
  m_TagString: Untagged
  m_Icon: {fileID: 0}
  m_NavMeshLayer: 0
  m_StaticEditorFlags: 0
  m_IsActive: 1
--- !u!4 &4461687876751035574
Transform:
  m_ObjectHideFlags: 0
  m_CorrespondingSourceObject: {fileID: 0}
  m_PrefabInstance: {fileID: 0}
  m_PrefabAsset: {fileID: 0}
  m_GameObject: {fileID: 802856092909269692}
  m_LocalRotation: {x: 0, y: -0, z: -0, w: 1}
  m_LocalPosition: {x: -0, y: 0, z: 0}
  m_LocalScale: {x: 1, y: 1, z: 1}
  m_Children: []
  m_Father: {fileID: 1827642009972118997}
  m_RootOrder: 0
  m_LocalEulerAnglesHint: {x: 0, y: 0, z: 0}
--- !u!137 &79875863991108083
SkinnedMeshRenderer:
  m_ObjectHideFlags: 0
  m_CorrespondingSourceObject: {fileID: 0}
  m_PrefabInstance: {fileID: 0}
  m_PrefabAsset: {fileID: 0}
  m_GameObject: {fileID: 802856092909269692}
  m_Enabled: 1
  m_CastShadows: 1
  m_ReceiveShadows: 1
  m_DynamicOccludee: 1
  m_StaticShadowCaster: 0
  m_MotionVectors: 1
  m_LightProbeUsage: 1
  m_ReflectionProbeUsage: 1
  m_RayTracingMode: 0
  m_RayTraceProcedural: 0
  m_RenderingLayerMask: 1
  m_RendererPriority: 0
  m_Materials:
  - {fileID: 2100000, guid: f5fb83cc0815eec429d8e3c27094e525, type: 2}
  m_StaticBatchInfo:
    firstSubMesh: 0
    subMeshCount: 0
  m_StaticBatchRoot: {fileID: 0}
  m_ProbeAnchor: {fileID: 0}
  m_LightProbeVolumeOverride: {fileID: 0}
  m_ScaleInLightmap: 1
  m_ReceiveGI: 1
  m_PreserveUVs: 0
  m_IgnoreNormalsForChartDetection: 0
  m_ImportantGI: 0
  m_StitchLightmapSeams: 1
  m_SelectedEditorRenderState: 3
  m_MinimumChartSize: 4
  m_AutoUVMaxDistance: 0.5
  m_AutoUVMaxAngle: 89
  m_LightmapParameters: {fileID: 0}
  m_SortingLayerID: 0
  m_SortingLayer: 0
  m_SortingOrder: 0
  serializedVersion: 2
  m_Quality: 0
  m_UpdateWhenOffscreen: 0
  m_SkinnedMotionVectors: 1
  m_Mesh: {fileID: 3556759992563196639, guid: 7e6fcf30eabcaec43bb46e1d611f9df5, type: 3}
  m_Bones:
  - {fileID: 9043589632627961925}
  - {fileID: 6774633103625404552}
  - {fileID: 6452747152157738658}
  - {fileID: 5826281215127747192}
  - {fileID: 1908796047003164183}
  - {fileID: 8941037273411902607}
  - {fileID: 6911241748742393243}
  - {fileID: 3084064516644617199}
  - {fileID: 5369863300984200627}
  - {fileID: 4370629894795678910}
  - {fileID: 3731956662735818994}
  - {fileID: 7485908624652795727}
  - {fileID: 3133067334561422514}
  - {fileID: 8360814122869198876}
  - {fileID: 1490259298238108995}
  - {fileID: 111471470414272800}
  - {fileID: 1617857800121189459}
  - {fileID: 2495930890019992819}
  - {fileID: 4187420402931764656}
  - {fileID: 3073728468277439952}
  - {fileID: 3008700734592211699}
  - {fileID: 6934331374597603226}
  - {fileID: 4068756319112088880}
  - {fileID: 8571771992253332423}
  - {fileID: 6878682751172195402}
  - {fileID: 2305774594062624554}
  - {fileID: 5334230550543772557}
  - {fileID: 7445394513094630820}
  - {fileID: 6621843516108669347}
  - {fileID: 7984358920706417436}
  - {fileID: 729765173281850776}
  - {fileID: 94898364965929039}
  - {fileID: 7483853432533810658}
  - {fileID: 5899325427943692780}
  - {fileID: 2247638118362572083}
  - {fileID: 1162167969366848456}
  - {fileID: 1455654243838238831}
  - {fileID: 2267281236069501966}
  - {fileID: 6886303157918058656}
  - {fileID: 2750957032992240303}
  - {fileID: 6206285906987827307}
  - {fileID: 5533906102648240451}
  - {fileID: 361020150149000171}
  - {fileID: 7521081211250957379}
  - {fileID: 2667347841406956250}
  - {fileID: 9128612315683750238}
  - {fileID: 4695395914520231316}
  - {fileID: 6315707854114896393}
  - {fileID: 7617020266490363076}
  - {fileID: 1531385316315636189}
  - {fileID: 5163321031199741170}
  - {fileID: 8872634055185608102}
  - {fileID: 8232324365434380373}
  - {fileID: 560071389976804984}
  - {fileID: 3642371643029039977}
  m_BlendShapeWeights: []
  m_RootBone: {fileID: 9043589632627961925}
  m_AABB:
    m_Center: {x: -0.00000011920929, y: 0.04528922, z: 0.8206737}
    m_Extent: {x: 1.3458344, y: 0.61795, z: 0.8410951}
  m_DirtyAABB: 0
--- !u!1 &1001007463492550276
GameObject:
  m_ObjectHideFlags: 0
  m_CorrespondingSourceObject: {fileID: 0}
  m_PrefabInstance: {fileID: 0}
  m_PrefabAsset: {fileID: 0}
  serializedVersion: 6
  m_Component:
  - component: {fileID: 1531385316315636189}
  m_Layer: 6
  m_Name: tail_03
  m_TagString: Untagged
  m_Icon: {fileID: 0}
  m_NavMeshLayer: 0
  m_StaticEditorFlags: 0
  m_IsActive: 1
--- !u!4 &1531385316315636189
Transform:
  m_ObjectHideFlags: 0
  m_CorrespondingSourceObject: {fileID: 0}
  m_PrefabInstance: {fileID: 0}
  m_PrefabAsset: {fileID: 0}
  m_GameObject: {fileID: 1001007463492550276}
  m_LocalRotation: {x: 0, y: 0, z: -0.09853762, w: 0.99513334}
  m_LocalPosition: {x: -0.30899003, y: 7.105427e-17, z: -7.424184e-17}
  m_LocalScale: {x: 1, y: 1, z: 1}
  m_Children:
  - {fileID: 5163321031199741170}
  m_Father: {fileID: 7617020266490363076}
  m_RootOrder: 0
  m_LocalEulerAnglesHint: {x: 0, y: 0, z: 0}
--- !u!1 &1499782184406532187
GameObject:
  m_ObjectHideFlags: 0
  m_CorrespondingSourceObject: {fileID: 0}
  m_PrefabInstance: {fileID: 0}
  m_PrefabAsset: {fileID: 0}
  serializedVersion: 6
  m_Component:
  - component: {fileID: 2305774594062624554}
  m_Layer: 6
  m_Name: hornB_03_r
  m_TagString: Untagged
  m_Icon: {fileID: 0}
  m_NavMeshLayer: 0
  m_StaticEditorFlags: 0
  m_IsActive: 1
--- !u!4 &2305774594062624554
Transform:
  m_ObjectHideFlags: 0
  m_CorrespondingSourceObject: {fileID: 0}
  m_PrefabInstance: {fileID: 0}
  m_PrefabAsset: {fileID: 0}
  m_GameObject: {fileID: 1499782184406532187}
  m_LocalRotation: {x: 2.3129124e-18, y: -0.7257409, z: -2.3129124e-18, w: 0.6879682}
  m_LocalPosition: {x: 0.29144114, y: 0.00000043365793, z: -0.00000014326524}
  m_LocalScale: {x: 1, y: 1, z: 1}
  m_Children: []
  m_Father: {fileID: 6878682751172195402}
  m_RootOrder: 0
  m_LocalEulerAnglesHint: {x: 0, y: 0, z: 0}
--- !u!1 &1579902278393136713
GameObject:
  m_ObjectHideFlags: 0
  m_CorrespondingSourceObject: {fileID: 0}
  m_PrefabInstance: {fileID: 0}
  m_PrefabAsset: {fileID: 0}
  serializedVersion: 6
  m_Component:
  - component: {fileID: 2750957032992240303}
  m_Layer: 6
  m_Name: saw_r
  m_TagString: Untagged
  m_Icon: {fileID: 0}
  m_NavMeshLayer: 0
  m_StaticEditorFlags: 0
  m_IsActive: 1
--- !u!4 &2750957032992240303
Transform:
  m_ObjectHideFlags: 0
  m_CorrespondingSourceObject: {fileID: 0}
  m_PrefabInstance: {fileID: 0}
  m_PrefabAsset: {fileID: 0}
  m_GameObject: {fileID: 1579902278393136713}
  m_LocalRotation: {x: 0.70580983, y: -0.0022091598, z: 0.0003184791, w: 0.7083978}
  m_LocalPosition: {x: 0.13957906, y: 0.0022421728, z: -0.00047287406}
  m_LocalScale: {x: 1, y: 1, z: 1}
  m_Children: []
  m_Father: {fileID: 2267281236069501966}
  m_RootOrder: 2
  m_LocalEulerAnglesHint: {x: 0, y: 0, z: 0}
--- !u!1 &1727171905325620431
GameObject:
  m_ObjectHideFlags: 0
  m_CorrespondingSourceObject: {fileID: 0}
  m_PrefabInstance: {fileID: 0}
  m_PrefabAsset: {fileID: 0}
  serializedVersion: 6
  m_Component:
  - component: {fileID: 7485908624652795727}
  m_Layer: 6
  m_Name: hat_02
  m_TagString: Untagged
  m_Icon: {fileID: 0}
  m_NavMeshLayer: 0
  m_StaticEditorFlags: 0
  m_IsActive: 1
--- !u!4 &7485908624652795727
Transform:
  m_ObjectHideFlags: 0
  m_CorrespondingSourceObject: {fileID: 0}
  m_PrefabInstance: {fileID: 0}
  m_PrefabAsset: {fileID: 0}
  m_GameObject: {fileID: 1727171905325620431}
  m_LocalRotation: {x: 0.004463791, y: -0.7070927, z: 0.004463791, w: 0.7070927}
  m_LocalPosition: {x: -0.6819025, y: -0.00860988, z: 7.8409694e-17}
  m_LocalScale: {x: 1, y: 1, z: 1}
  m_Children: []
  m_Father: {fileID: 3731956662735818994}
  m_RootOrder: 0
  m_LocalEulerAnglesHint: {x: 0, y: 0, z: 0}
--- !u!1 &1802175372377949232
GameObject:
  m_ObjectHideFlags: 0
  m_CorrespondingSourceObject: {fileID: 0}
  m_PrefabInstance: {fileID: 0}
  m_PrefabAsset: {fileID: 0}
  serializedVersion: 6
  m_Component:
  - component: {fileID: 3084064516644617199}
  m_Layer: 6
  m_Name: face
  m_TagString: Untagged
  m_Icon: {fileID: 0}
  m_NavMeshLayer: 0
  m_StaticEditorFlags: 0
  m_IsActive: 1
--- !u!4 &3084064516644617199
Transform:
  m_ObjectHideFlags: 0
  m_CorrespondingSourceObject: {fileID: 0}
  m_PrefabInstance: {fileID: 0}
  m_PrefabAsset: {fileID: 0}
  m_GameObject: {fileID: 1802175372377949232}
  m_LocalRotation: {x: 0, y: 0, z: 0.76580924, w: 0.6430679}
  m_LocalPosition: {x: 0.11468992, y: -0.11381889, z: -1.1558126e-16}
  m_LocalScale: {x: 1, y: 1, z: 1}
  m_Children:
  - {fileID: 5369863300984200627}
  m_Father: {fileID: 6911241748742393243}
  m_RootOrder: 0
  m_LocalEulerAnglesHint: {x: 0, y: 0, z: 0}
--- !u!1 &1831269219797425245
GameObject:
  m_ObjectHideFlags: 0
  m_CorrespondingSourceObject: {fileID: 0}
  m_PrefabInstance: {fileID: 0}
  m_PrefabAsset: {fileID: 0}
  serializedVersion: 6
  m_Component:
  - component: {fileID: 8774347840185441957}
  - component: {fileID: 7623974087381213048}
  m_Layer: 6
  m_Name: Bodypart08
  m_TagString: Untagged
  m_Icon: {fileID: 0}
  m_NavMeshLayer: 0
  m_StaticEditorFlags: 0
  m_IsActive: 1
--- !u!4 &8774347840185441957
Transform:
  m_ObjectHideFlags: 0
  m_CorrespondingSourceObject: {fileID: 0}
  m_PrefabInstance: {fileID: 0}
  m_PrefabAsset: {fileID: 0}
  m_GameObject: {fileID: 1831269219797425245}
  m_LocalRotation: {x: 0, y: -0, z: -0, w: 1}
  m_LocalPosition: {x: -0, y: 0, z: 0}
  m_LocalScale: {x: 1, y: 1, z: 1}
  m_Children: []
  m_Father: {fileID: 5278367424184741326}
  m_RootOrder: 0
  m_LocalEulerAnglesHint: {x: 0, y: 0, z: 0}
--- !u!137 &7623974087381213048
SkinnedMeshRenderer:
  m_ObjectHideFlags: 0
  m_CorrespondingSourceObject: {fileID: 0}
  m_PrefabInstance: {fileID: 0}
  m_PrefabAsset: {fileID: 0}
  m_GameObject: {fileID: 1831269219797425245}
  m_Enabled: 1
  m_CastShadows: 1
  m_ReceiveShadows: 1
  m_DynamicOccludee: 1
  m_StaticShadowCaster: 0
  m_MotionVectors: 1
  m_LightProbeUsage: 1
  m_ReflectionProbeUsage: 1
  m_RayTracingMode: 0
  m_RayTraceProcedural: 0
  m_RenderingLayerMask: 1
  m_RendererPriority: 0
  m_Materials:
  - {fileID: 2100000, guid: f5fb83cc0815eec429d8e3c27094e525, type: 2}
  m_StaticBatchInfo:
    firstSubMesh: 0
    subMeshCount: 0
  m_StaticBatchRoot: {fileID: 0}
  m_ProbeAnchor: {fileID: 0}
  m_LightProbeVolumeOverride: {fileID: 0}
  m_ScaleInLightmap: 1
  m_ReceiveGI: 1
  m_PreserveUVs: 0
  m_IgnoreNormalsForChartDetection: 0
  m_ImportantGI: 0
  m_StitchLightmapSeams: 1
  m_SelectedEditorRenderState: 3
  m_MinimumChartSize: 4
  m_AutoUVMaxDistance: 0.5
  m_AutoUVMaxAngle: 89
  m_LightmapParameters: {fileID: 0}
  m_SortingLayerID: 0
  m_SortingLayer: 0
  m_SortingOrder: 0
  serializedVersion: 2
  m_Quality: 0
  m_UpdateWhenOffscreen: 0
  m_SkinnedMotionVectors: 1
  m_Mesh: {fileID: -8999309739244066695, guid: 7e6fcf30eabcaec43bb46e1d611f9df5, type: 3}
  m_Bones:
  - {fileID: 9043589632627961925}
  - {fileID: 6774633103625404552}
  - {fileID: 6452747152157738658}
  - {fileID: 5826281215127747192}
  - {fileID: 1908796047003164183}
  - {fileID: 8941037273411902607}
  - {fileID: 6911241748742393243}
  - {fileID: 3084064516644617199}
  - {fileID: 5369863300984200627}
  - {fileID: 4370629894795678910}
  - {fileID: 3731956662735818994}
  - {fileID: 7485908624652795727}
  - {fileID: 3133067334561422514}
  - {fileID: 8360814122869198876}
  - {fileID: 1490259298238108995}
  - {fileID: 111471470414272800}
  - {fileID: 1617857800121189459}
  - {fileID: 2495930890019992819}
  - {fileID: 4187420402931764656}
  - {fileID: 3073728468277439952}
  - {fileID: 3008700734592211699}
  - {fileID: 6934331374597603226}
  - {fileID: 4068756319112088880}
  - {fileID: 8571771992253332423}
  - {fileID: 6878682751172195402}
  - {fileID: 2305774594062624554}
  - {fileID: 5334230550543772557}
  - {fileID: 7445394513094630820}
  - {fileID: 6621843516108669347}
  - {fileID: 7984358920706417436}
  - {fileID: 729765173281850776}
  - {fileID: 94898364965929039}
  - {fileID: 7483853432533810658}
  - {fileID: 5899325427943692780}
  - {fileID: 2247638118362572083}
  - {fileID: 1162167969366848456}
  - {fileID: 1455654243838238831}
  - {fileID: 2267281236069501966}
  - {fileID: 6886303157918058656}
  - {fileID: 2750957032992240303}
  - {fileID: 6206285906987827307}
  - {fileID: 5533906102648240451}
  - {fileID: 361020150149000171}
  - {fileID: 7521081211250957379}
  - {fileID: 2667347841406956250}
  - {fileID: 9128612315683750238}
  - {fileID: 4695395914520231316}
  - {fileID: 6315707854114896393}
  - {fileID: 7617020266490363076}
  - {fileID: 1531385316315636189}
  - {fileID: 5163321031199741170}
  - {fileID: 8872634055185608102}
  - {fileID: 8232324365434380373}
  - {fileID: 560071389976804984}
  - {fileID: 3642371643029039977}
  m_BlendShapeWeights: []
  m_RootBone: {fileID: 9043589632627961925}
  m_AABB:
    m_Center: {x: -0.000000014901161, y: -0.38878524, z: 0.6995373}
    m_Extent: {x: 0.22454894, y: 0.17813039, z: 0.24182624}
  m_DirtyAABB: 0
--- !u!1 &1882876668128178446
GameObject:
  m_ObjectHideFlags: 0
  m_CorrespondingSourceObject: {fileID: 0}
  m_PrefabInstance: {fileID: 0}
  m_PrefabAsset: {fileID: 0}
  serializedVersion: 6
  m_Component:
  - component: {fileID: 6886303157918058656}
  m_Layer: 6
  m_Name: drill_r
  m_TagString: Untagged
  m_Icon: {fileID: 0}
  m_NavMeshLayer: 0
  m_StaticEditorFlags: 0
  m_IsActive: 1
--- !u!4 &6886303157918058656
Transform:
  m_ObjectHideFlags: 0
  m_CorrespondingSourceObject: {fileID: 0}
  m_PrefabInstance: {fileID: 0}
  m_PrefabAsset: {fileID: 0}
  m_GameObject: {fileID: 1882876668128178446}
  m_LocalRotation: {x: 0.70580983, y: -0.0022091598, z: 0.0003184791, w: 0.7083978}
  m_LocalPosition: {x: 0.110078454, y: 0.009448838, z: -0.0006042899}
  m_LocalScale: {x: 1, y: 1, z: 1}
  m_Children: []
  m_Father: {fileID: 2267281236069501966}
  m_RootOrder: 0
  m_LocalEulerAnglesHint: {x: 0, y: 0, z: 0}
--- !u!1 &2000938068769221036
GameObject:
  m_ObjectHideFlags: 0
  m_CorrespondingSourceObject: {fileID: 0}
  m_PrefabInstance: {fileID: 0}
  m_PrefabAsset: {fileID: 0}
  serializedVersion: 6
  m_Component:
  - component: {fileID: 3731956662735818994}
  m_Layer: 6
  m_Name: hat_01
  m_TagString: Untagged
  m_Icon: {fileID: 0}
  m_NavMeshLayer: 0
  m_StaticEditorFlags: 0
  m_IsActive: 1
--- !u!4 &3731956662735818994
Transform:
  m_ObjectHideFlags: 0
  m_CorrespondingSourceObject: {fileID: 0}
  m_PrefabInstance: {fileID: 0}
  m_PrefabAsset: {fileID: 0}
  m_GameObject: {fileID: 2000938068769221036}
  m_LocalRotation: {x: 0, y: 0, z: -0.006312754, w: 0.9999801}
  m_LocalPosition: {x: -0.18918252, y: 0.0049800063, z: 1.1443254e-16}
  m_LocalScale: {x: 1, y: 1, z: 1}
  m_Children:
  - {fileID: 7485908624652795727}
  m_Father: {fileID: 6911241748742393243}
  m_RootOrder: 2
  m_LocalEulerAnglesHint: {x: 0, y: 0, z: 0}
--- !u!1 &2041047001244066822
GameObject:
  m_ObjectHideFlags: 0
  m_CorrespondingSourceObject: {fileID: 0}
  m_PrefabInstance: {fileID: 0}
  m_PrefabAsset: {fileID: 0}
  serializedVersion: 6
  m_Component:
  - component: {fileID: 8941037273411902607}
  m_Layer: 6
  m_Name: neck_01
  m_TagString: Untagged
  m_Icon: {fileID: 0}
  m_NavMeshLayer: 0
  m_StaticEditorFlags: 0
  m_IsActive: 1
--- !u!4 &8941037273411902607
Transform:
  m_ObjectHideFlags: 0
  m_CorrespondingSourceObject: {fileID: 0}
  m_PrefabInstance: {fileID: 0}
  m_PrefabAsset: {fileID: 0}
  m_GameObject: {fileID: 2041047001244066822}
  m_LocalRotation: {x: -2.7535306e-17, y: -3.897205e-18, z: 0.20162798, w: 0.9794622}
  m_LocalPosition: {x: -0.20905116, y: 1.7763567e-16, z: 1.0606601e-16}
  m_LocalScale: {x: 1, y: 1, z: 1}
  m_Children:
  - {fileID: 6911241748742393243}
  m_Father: {fileID: 1908796047003164183}
  m_RootOrder: 2
  m_LocalEulerAnglesHint: {x: 0, y: 0, z: 0}
--- !u!1 &2051280008848043948
GameObject:
  m_ObjectHideFlags: 0
  m_CorrespondingSourceObject: {fileID: 0}
  m_PrefabInstance: {fileID: 0}
  m_PrefabAsset: {fileID: 0}
  serializedVersion: 6
  m_Component:
  - component: {fileID: 1037707589056507073}
  m_Layer: 6
  m_Name: Eyes
  m_TagString: Untagged
  m_Icon: {fileID: 0}
  m_NavMeshLayer: 0
  m_StaticEditorFlags: 0
  m_IsActive: 1
--- !u!4 &1037707589056507073
Transform:
  m_ObjectHideFlags: 0
  m_CorrespondingSourceObject: {fileID: 0}
  m_PrefabInstance: {fileID: 0}
  m_PrefabAsset: {fileID: 0}
  m_GameObject: {fileID: 2051280008848043948}
  m_LocalRotation: {x: -0.7071068, y: 0, z: -0, w: 0.7071068}
  m_LocalPosition: {x: -0, y: 0, z: 0}
  m_LocalScale: {x: 1, y: 1, z: 1}
  m_Children:
  - {fileID: 6876275119487738818}
  m_Father: {fileID: 5159228069126568913}
  m_RootOrder: 2
  m_LocalEulerAnglesHint: {x: 0, y: 0, z: 0}
--- !u!1 &2111146900479099671
GameObject:
  m_ObjectHideFlags: 0
  m_CorrespondingSourceObject: {fileID: 0}
  m_PrefabInstance: {fileID: 0}
  m_PrefabAsset: {fileID: 0}
  serializedVersion: 6
  m_Component:
  - component: {fileID: 7445895361139134072}
  m_Layer: 6
  m_Name: Gloves
  m_TagString: Untagged
  m_Icon: {fileID: 0}
  m_NavMeshLayer: 0
  m_StaticEditorFlags: 0
  m_IsActive: 1
--- !u!4 &7445895361139134072
Transform:
  m_ObjectHideFlags: 0
  m_CorrespondingSourceObject: {fileID: 0}
  m_PrefabInstance: {fileID: 0}
  m_PrefabAsset: {fileID: 0}
  m_GameObject: {fileID: 2111146900479099671}
  m_LocalRotation: {x: -0.7071068, y: 0, z: -0, w: 0.7071068}
  m_LocalPosition: {x: -0, y: 0, z: 0}
  m_LocalScale: {x: 1, y: 1, z: 1}
  m_Children:
  - {fileID: 2897235201883768841}
  m_Father: {fileID: 5159228069126568913}
  m_RootOrder: 3
  m_LocalEulerAnglesHint: {x: 0, y: 0, z: 0}
--- !u!1 &2471052210798755280
GameObject:
  m_ObjectHideFlags: 0
  m_CorrespondingSourceObject: {fileID: 0}
  m_PrefabInstance: {fileID: 0}
  m_PrefabAsset: {fileID: 0}
  serializedVersion: 6
  m_Component:
  - component: {fileID: 2495930890019992819}
  m_Layer: 6
  m_Name: hornC_01_l
  m_TagString: Untagged
  m_Icon: {fileID: 0}
  m_NavMeshLayer: 0
  m_StaticEditorFlags: 0
  m_IsActive: 1
--- !u!4 &2495930890019992819
Transform:
  m_ObjectHideFlags: 0
  m_CorrespondingSourceObject: {fileID: 0}
  m_PrefabInstance: {fileID: 0}
  m_PrefabAsset: {fileID: 0}
  m_GameObject: {fileID: 2471052210798755280}
  m_LocalRotation: {x: 0, y: -0.47399396, z: -0, w: 0.88052815}
  m_LocalPosition: {x: 0.06945152, y: 0.0049800063, z: -0.2359865}
  m_LocalScale: {x: 1, y: 1, z: 1}
  m_Children:
  - {fileID: 4187420402931764656}
  m_Father: {fileID: 6911241748742393243}
  m_RootOrder: 7
  m_LocalEulerAnglesHint: {x: 0, y: 0, z: 0}
--- !u!1 &2582904201147895732
GameObject:
  m_ObjectHideFlags: 0
  m_CorrespondingSourceObject: {fileID: 0}
  m_PrefabInstance: {fileID: 0}
  m_PrefabAsset: {fileID: 0}
  serializedVersion: 6
  m_Component:
  - component: {fileID: 568313055959828704}
  m_Layer: 6
  m_Name: Tails
  m_TagString: Untagged
  m_Icon: {fileID: 0}
  m_NavMeshLayer: 0
  m_StaticEditorFlags: 0
  m_IsActive: 1
--- !u!4 &568313055959828704
Transform:
  m_ObjectHideFlags: 0
  m_CorrespondingSourceObject: {fileID: 0}
  m_PrefabInstance: {fileID: 0}
  m_PrefabAsset: {fileID: 0}
  m_GameObject: {fileID: 2582904201147895732}
  m_LocalRotation: {x: -0.7071068, y: 0, z: -0, w: 0.7071068}
  m_LocalPosition: {x: -0, y: 0, z: 0}
  m_LocalScale: {x: 1, y: 1, z: 1}
  m_Children:
  - {fileID: 2237540456238132906}
  m_Father: {fileID: 5159228069126568913}
  m_RootOrder: 6
  m_LocalEulerAnglesHint: {x: 0, y: 0, z: 0}
--- !u!1 &2863673802511240157
GameObject:
  m_ObjectHideFlags: 0
  m_CorrespondingSourceObject: {fileID: 0}
  m_PrefabInstance: {fileID: 0}
  m_PrefabAsset: {fileID: 0}
  serializedVersion: 6
  m_Component:
  - component: {fileID: 5826281215127747192}
  m_Layer: 6
  m_Name: spine_02
  m_TagString: Untagged
  m_Icon: {fileID: 0}
  m_NavMeshLayer: 0
  m_StaticEditorFlags: 0
  m_IsActive: 1
--- !u!4 &5826281215127747192
Transform:
  m_ObjectHideFlags: 0
  m_CorrespondingSourceObject: {fileID: 0}
  m_PrefabInstance: {fileID: 0}
  m_PrefabAsset: {fileID: 0}
  m_GameObject: {fileID: 2863673802511240157}
  m_LocalRotation: {x: 6.142407e-17, y: 1.655707e-16, z: -0.0765332, w: 0.99706703}
  m_LocalPosition: {x: -0.15357347, y: -3.6637358e-17, z: 4.178964e-17}
  m_LocalScale: {x: 1, y: 1, z: 1}
  m_Children:
  - {fileID: 1908796047003164183}
  m_Father: {fileID: 6452747152157738658}
  m_RootOrder: 1
  m_LocalEulerAnglesHint: {x: 0, y: 0, z: 0}
--- !u!1 &2876029611575658477
GameObject:
  m_ObjectHideFlags: 0
  m_CorrespondingSourceObject: {fileID: 0}
  m_PrefabInstance: {fileID: 0}
  m_PrefabAsset: {fileID: 0}
  serializedVersion: 6
  m_Component:
  - component: {fileID: 1162167969366848456}
  m_Layer: 6
  m_Name: upperarm_r
  m_TagString: Untagged
  m_Icon: {fileID: 0}
  m_NavMeshLayer: 0
  m_StaticEditorFlags: 0
  m_IsActive: 1
--- !u!4 &1162167969366848456
Transform:
  m_ObjectHideFlags: 0
  m_CorrespondingSourceObject: {fileID: 0}
  m_PrefabInstance: {fileID: 0}
  m_PrefabAsset: {fileID: 0}
  m_GameObject: {fileID: 2876029611575658477}
  m_LocalRotation: {x: 0.0015542243, y: 0.022218248, z: -0.11379966, w: 0.993254}
  m_LocalPosition: {x: 0.15415917, y: 0.00000004352324, z: 0}
  m_LocalScale: {x: 1, y: 1, z: 1}
  m_Children:
  - {fileID: 1455654243838238831}
  m_Father: {fileID: 2247638118362572083}
  m_RootOrder: 0
  m_LocalEulerAnglesHint: {x: 0, y: 0, z: 0}
--- !u!1 &3061899083534854056
GameObject:
  m_ObjectHideFlags: 0
  m_CorrespondingSourceObject: {fileID: 0}
  m_PrefabInstance: {fileID: 0}
  m_PrefabAsset: {fileID: 0}
  serializedVersion: 6
  m_Component:
  - component: {fileID: 3008700734592211699}
  m_Layer: 6
  m_Name: hornA_02_r
  m_TagString: Untagged
  m_Icon: {fileID: 0}
  m_NavMeshLayer: 0
  m_StaticEditorFlags: 0
  m_IsActive: 1
--- !u!4 &3008700734592211699
Transform:
  m_ObjectHideFlags: 0
  m_CorrespondingSourceObject: {fileID: 0}
  m_PrefabInstance: {fileID: 0}
  m_PrefabAsset: {fileID: 0}
  m_GameObject: {fileID: 3061899083534854056}
  m_LocalRotation: {x: 0, y: -0.5431475, z: -0, w: 0.8396373}
  m_LocalPosition: {x: 0.67569244, y: 0.000000046456332, z: 0.000001032785}
  m_LocalScale: {x: 1, y: 1, z: 1}
  m_Children: []
  m_Father: {fileID: 3073728468277439952}
  m_RootOrder: 0
  m_LocalEulerAnglesHint: {x: 0, y: 0, z: 0}
--- !u!1 &3359571406837318066
GameObject:
  m_ObjectHideFlags: 0
  m_CorrespondingSourceObject: {fileID: 0}
  m_PrefabInstance: {fileID: 0}
  m_PrefabAsset: {fileID: 0}
  serializedVersion: 6
  m_Component:
  - component: {fileID: 5334230550543772557}
  m_Layer: 6
  m_Name: clavicle_l
  m_TagString: Untagged
  m_Icon: {fileID: 0}
  m_NavMeshLayer: 0
  m_StaticEditorFlags: 0
  m_IsActive: 1
--- !u!4 &5334230550543772557
Transform:
  m_ObjectHideFlags: 0
  m_CorrespondingSourceObject: {fileID: 0}
  m_PrefabInstance: {fileID: 0}
  m_PrefabAsset: {fileID: 0}
  m_GameObject: {fileID: 3359571406837318066}
  m_LocalRotation: {x: 0.03173624, y: -0.72198325, z: 0.15612186, w: 0.67331934}
  m_LocalPosition: {x: -0.063511945, y: 0.030065516, z: -0.20842351}
  m_LocalScale: {x: 1, y: 1, z: 1}
  m_Children:
  - {fileID: 7445394513094630820}
  m_Father: {fileID: 1908796047003164183}
  m_RootOrder: 0
  m_LocalEulerAnglesHint: {x: 0, y: 0, z: 0}
--- !u!1 &3413050528889680722
GameObject:
  m_ObjectHideFlags: 0
  m_CorrespondingSourceObject: {fileID: 0}
  m_PrefabInstance: {fileID: 0}
  m_PrefabAsset: {fileID: 0}
  serializedVersion: 6
  m_Component:
  - component: {fileID: 2897235201883768841}
  - component: {fileID: 2359797581241394972}
  m_Layer: 6
  m_Name: Glove04
  m_TagString: Untagged
  m_Icon: {fileID: 0}
  m_NavMeshLayer: 0
  m_StaticEditorFlags: 0
  m_IsActive: 1
--- !u!4 &2897235201883768841
Transform:
  m_ObjectHideFlags: 0
  m_CorrespondingSourceObject: {fileID: 0}
  m_PrefabInstance: {fileID: 0}
  m_PrefabAsset: {fileID: 0}
  m_GameObject: {fileID: 3413050528889680722}
  m_LocalRotation: {x: 0, y: -0, z: -0, w: 1}
  m_LocalPosition: {x: -0, y: 0, z: 0}
  m_LocalScale: {x: 1, y: 1, z: 1}
  m_Children: []
  m_Father: {fileID: 7445895361139134072}
  m_RootOrder: 0
  m_LocalEulerAnglesHint: {x: 0, y: 0, z: 0}
--- !u!137 &2359797581241394972
SkinnedMeshRenderer:
  m_ObjectHideFlags: 0
  m_CorrespondingSourceObject: {fileID: 0}
  m_PrefabInstance: {fileID: 0}
  m_PrefabAsset: {fileID: 0}
  m_GameObject: {fileID: 3413050528889680722}
  m_Enabled: 1
  m_CastShadows: 1
  m_ReceiveShadows: 1
  m_DynamicOccludee: 1
  m_StaticShadowCaster: 0
  m_MotionVectors: 1
  m_LightProbeUsage: 1
  m_ReflectionProbeUsage: 1
  m_RayTracingMode: 0
  m_RayTraceProcedural: 0
  m_RenderingLayerMask: 1
  m_RendererPriority: 0
  m_Materials:
  - {fileID: 2100000, guid: f5fb83cc0815eec429d8e3c27094e525, type: 2}
  m_StaticBatchInfo:
    firstSubMesh: 0
    subMeshCount: 0
  m_StaticBatchRoot: {fileID: 0}
  m_ProbeAnchor: {fileID: 0}
  m_LightProbeVolumeOverride: {fileID: 0}
  m_ScaleInLightmap: 1
  m_ReceiveGI: 1
  m_PreserveUVs: 0
  m_IgnoreNormalsForChartDetection: 0
  m_ImportantGI: 0
  m_StitchLightmapSeams: 1
  m_SelectedEditorRenderState: 3
  m_MinimumChartSize: 4
  m_AutoUVMaxDistance: 0.5
  m_AutoUVMaxAngle: 89
  m_LightmapParameters: {fileID: 0}
  m_SortingLayerID: 0
  m_SortingLayer: 0
  m_SortingOrder: 0
  serializedVersion: 2
  m_Quality: 0
  m_UpdateWhenOffscreen: 0
  m_SkinnedMotionVectors: 1
  m_Mesh: {fileID: 8370766433143243068, guid: 7e6fcf30eabcaec43bb46e1d611f9df5, type: 3}
  m_Bones:
  - {fileID: 9043589632627961925}
  - {fileID: 6774633103625404552}
  - {fileID: 6452747152157738658}
  - {fileID: 5826281215127747192}
  - {fileID: 1908796047003164183}
  - {fileID: 8941037273411902607}
  - {fileID: 6911241748742393243}
  - {fileID: 3084064516644617199}
  - {fileID: 5369863300984200627}
  - {fileID: 4370629894795678910}
  - {fileID: 3731956662735818994}
  - {fileID: 7485908624652795727}
  - {fileID: 3133067334561422514}
  - {fileID: 8360814122869198876}
  - {fileID: 1490259298238108995}
  - {fileID: 111471470414272800}
  - {fileID: 1617857800121189459}
  - {fileID: 2495930890019992819}
  - {fileID: 4187420402931764656}
  - {fileID: 3073728468277439952}
  - {fileID: 3008700734592211699}
  - {fileID: 6934331374597603226}
  - {fileID: 4068756319112088880}
  - {fileID: 8571771992253332423}
  - {fileID: 6878682751172195402}
  - {fileID: 2305774594062624554}
  - {fileID: 5334230550543772557}
  - {fileID: 7445394513094630820}
  - {fileID: 6621843516108669347}
  - {fileID: 7984358920706417436}
  - {fileID: 729765173281850776}
  - {fileID: 94898364965929039}
  - {fileID: 7483853432533810658}
  - {fileID: 5899325427943692780}
  - {fileID: 2247638118362572083}
  - {fileID: 1162167969366848456}
  - {fileID: 1455654243838238831}
  - {fileID: 2267281236069501966}
  - {fileID: 6886303157918058656}
  - {fileID: 2750957032992240303}
  - {fileID: 6206285906987827307}
  - {fileID: 5533906102648240451}
  - {fileID: 361020150149000171}
  - {fileID: 7521081211250957379}
  - {fileID: 2667347841406956250}
  - {fileID: 9128612315683750238}
  - {fileID: 4695395914520231316}
  - {fileID: 6315707854114896393}
  - {fileID: 7617020266490363076}
  - {fileID: 1531385316315636189}
  - {fileID: 5163321031199741170}
  - {fileID: 8872634055185608102}
  - {fileID: 8232324365434380373}
  - {fileID: 560071389976804984}
  - {fileID: 3642371643029039977}
  m_BlendShapeWeights: []
  m_RootBone: {fileID: 9043589632627961925}
  m_AABB:
    m_Center: {x: -0.00000011920929, y: 0.0030858219, z: 0.9630588}
    m_Extent: {x: 1.5608062, y: 0.3793363, z: 0.38387188}
  m_DirtyAABB: 0
--- !u!1 &3491242377620353879
GameObject:
  m_ObjectHideFlags: 0
  m_CorrespondingSourceObject: {fileID: 0}
  m_PrefabInstance: {fileID: 0}
  m_PrefabAsset: {fileID: 0}
  serializedVersion: 6
  m_Component:
  - component: {fileID: 7984358920706417436}
  m_Layer: 6
  m_Name: hand_l
  m_TagString: Untagged
  m_Icon: {fileID: 0}
  m_NavMeshLayer: 0
  m_StaticEditorFlags: 0
  m_IsActive: 1
--- !u!4 &7984358920706417436
Transform:
  m_ObjectHideFlags: 0
  m_CorrespondingSourceObject: {fileID: 0}
  m_PrefabInstance: {fileID: 0}
  m_PrefabAsset: {fileID: 0}
  m_GameObject: {fileID: 3491242377620353879}
  m_LocalRotation: {x: -0.7056592, y: 0.014749782, z: -0.0129053835, w: 0.7082804}
  m_LocalPosition: {x: -0.40930396, y: -2.842171e-16, z: 2.2737367e-15}
  m_LocalScale: {x: 1, y: 1, z: 1}
  m_Children:
  - {fileID: 729765173281850776}
  - {fileID: 5899325427943692780}
  - {fileID: 94898364965929039}
  - {fileID: 7483853432533810658}
  m_Father: {fileID: 6621843516108669347}
  m_RootOrder: 0
  m_LocalEulerAnglesHint: {x: 0, y: 0, z: 0}
--- !u!1 &3532809359114752439
GameObject:
  m_ObjectHideFlags: 0
  m_CorrespondingSourceObject: {fileID: 0}
  m_PrefabInstance: {fileID: 0}
  m_PrefabAsset: {fileID: 0}
  serializedVersion: 6
  m_Component:
  - component: {fileID: 5369863300984200627}
  m_Layer: 6
  m_Name: mouth
  m_TagString: Untagged
  m_Icon: {fileID: 0}
  m_NavMeshLayer: 0
  m_StaticEditorFlags: 0
  m_IsActive: 1
--- !u!4 &5369863300984200627
Transform:
  m_ObjectHideFlags: 0
  m_CorrespondingSourceObject: {fileID: 0}
  m_PrefabInstance: {fileID: 0}
  m_PrefabAsset: {fileID: 0}
  m_GameObject: {fileID: 3532809359114752439}
  m_LocalRotation: {x: 0.5415089, y: 0.45471767, z: 0.5415089, w: -0.45471767}
  m_LocalPosition: {x: -0.1039998, y: -0.006094659, z: -1.09662166e-16}
  m_LocalScale: {x: 1, y: 1, z: 1}
  m_Children: []
  m_Father: {fileID: 3084064516644617199}
  m_RootOrder: 0
  m_LocalEulerAnglesHint: {x: 0, y: 0, z: 0}
--- !u!1 &3559448426043274441
GameObject:
  m_ObjectHideFlags: 0
  m_CorrespondingSourceObject: {fileID: 0}
  m_PrefabInstance: {fileID: 0}
  m_PrefabAsset: {fileID: 0}
  serializedVersion: 6
  m_Component:
  - component: {fileID: 3304726918609368932}
  m_Layer: 6
  m_Name: MouthandNoses
  m_TagString: Untagged
  m_Icon: {fileID: 0}
  m_NavMeshLayer: 0
  m_StaticEditorFlags: 0
  m_IsActive: 1
--- !u!4 &3304726918609368932
Transform:
  m_ObjectHideFlags: 0
  m_CorrespondingSourceObject: {fileID: 0}
  m_PrefabInstance: {fileID: 0}
  m_PrefabAsset: {fileID: 0}
  m_GameObject: {fileID: 3559448426043274441}
  m_LocalRotation: {x: -0.7071068, y: 0, z: -0, w: 0.7071068}
  m_LocalPosition: {x: -0, y: 0, z: 0}
  m_LocalScale: {x: 1, y: 1, z: 1}
  m_Children:
  - {fileID: 2456534581481517074}
  m_Father: {fileID: 5159228069126568913}
  m_RootOrder: 4
  m_LocalEulerAnglesHint: {x: 0, y: 0, z: 0}
--- !u!1 &3932430117263488240
GameObject:
  m_ObjectHideFlags: 0
  m_CorrespondingSourceObject: {fileID: 0}
  m_PrefabInstance: {fileID: 0}
  m_PrefabAsset: {fileID: 0}
  serializedVersion: 6
  m_Component:
  - component: {fileID: 1827642009972118997}
  m_Layer: 6
  m_Name: Bodies
  m_TagString: Untagged
  m_Icon: {fileID: 0}
  m_NavMeshLayer: 0
  m_StaticEditorFlags: 0
  m_IsActive: 1
--- !u!4 &1827642009972118997
Transform:
  m_ObjectHideFlags: 0
  m_CorrespondingSourceObject: {fileID: 0}
  m_PrefabInstance: {fileID: 0}
  m_PrefabAsset: {fileID: 0}
  m_GameObject: {fileID: 3932430117263488240}
  m_LocalRotation: {x: -0.7071068, y: 0, z: -0, w: 0.7071068}
  m_LocalPosition: {x: -0, y: 0, z: 0}
  m_LocalScale: {x: 1, y: 1, z: 1}
  m_Children:
  - {fileID: 4461687876751035574}
  m_Father: {fileID: 5159228069126568913}
  m_RootOrder: 0
  m_LocalEulerAnglesHint: {x: 0, y: 0, z: 0}
--- !u!1 &3951487724515528602
GameObject:
  m_ObjectHideFlags: 0
  m_CorrespondingSourceObject: {fileID: 0}
  m_PrefabInstance: {fileID: 0}
  m_PrefabAsset: {fileID: 0}
  serializedVersion: 6
  m_Component:
  - component: {fileID: 6878682751172195402}
  m_Layer: 6
  m_Name: hornB_02_r
  m_TagString: Untagged
  m_Icon: {fileID: 0}
  m_NavMeshLayer: 0
  m_StaticEditorFlags: 0
  m_IsActive: 1
--- !u!4 &6878682751172195402
Transform:
  m_ObjectHideFlags: 0
  m_CorrespondingSourceObject: {fileID: 0}
  m_PrefabInstance: {fileID: 0}
  m_PrefabAsset: {fileID: 0}
  m_GameObject: {fileID: 3951487724515528602}
  m_LocalRotation: {x: 0, y: 0.43467525, z: -0, w: 0.9005873}
  m_LocalPosition: {x: 0.21829534, y: -0.0000002822668, z: -0.0000019725908}
  m_LocalScale: {x: 1, y: 1, z: 1}
  m_Children:
  - {fileID: 2305774594062624554}
  m_Father: {fileID: 8571771992253332423}
  m_RootOrder: 0
  m_LocalEulerAnglesHint: {x: 0, y: 0, z: 0}
--- !u!1 &4002573337222603744
GameObject:
  m_ObjectHideFlags: 0
  m_CorrespondingSourceObject: {fileID: 0}
  m_PrefabInstance: {fileID: 0}
  m_PrefabAsset: {fileID: 0}
  serializedVersion: 6
  m_Component:
  - component: {fileID: 2267281236069501966}
  m_Layer: 6
  m_Name: hand_r
  m_TagString: Untagged
  m_Icon: {fileID: 0}
  m_NavMeshLayer: 0
  m_StaticEditorFlags: 0
  m_IsActive: 1
--- !u!4 &2267281236069501966
Transform:
  m_ObjectHideFlags: 0
  m_CorrespondingSourceObject: {fileID: 0}
  m_PrefabInstance: {fileID: 0}
  m_PrefabAsset: {fileID: 0}
  m_GameObject: {fileID: 4002573337222603744}
  m_LocalRotation: {x: -0.7056592, y: 0.014749782, z: -0.0129053835, w: 0.7082804}
  m_LocalPosition: {x: 0.40930742, y: 4.440892e-18, z: -7.1054274e-15}
  m_LocalScale: {x: 1, y: 1, z: 1}
  m_Children:
  - {fileID: 6886303157918058656}
  - {fileID: 5533906102648240451}
  - {fileID: 2750957032992240303}
  - {fileID: 6206285906987827307}
  m_Father: {fileID: 1455654243838238831}
  m_RootOrder: 0
  m_LocalEulerAnglesHint: {x: 0, y: 0, z: 0}
--- !u!1 &4097310001887567137
GameObject:
  m_ObjectHideFlags: 0
  m_CorrespondingSourceObject: {fileID: 0}
  m_PrefabInstance: {fileID: 0}
  m_PrefabAsset: {fileID: 0}
  serializedVersion: 6
  m_Component:
  - component: {fileID: 94898364965929039}
  m_Layer: 6
  m_Name: saw_l
  m_TagString: Untagged
  m_Icon: {fileID: 0}
  m_NavMeshLayer: 0
  m_StaticEditorFlags: 0
  m_IsActive: 1
--- !u!4 &94898364965929039
Transform:
  m_ObjectHideFlags: 0
  m_CorrespondingSourceObject: {fileID: 0}
  m_PrefabInstance: {fileID: 0}
  m_PrefabAsset: {fileID: 0}
  m_GameObject: {fileID: 4097310001887567137}
  m_LocalRotation: {x: 0.70580983, y: -0.0022091598, z: 0.0003184791, w: 0.7083978}
  m_LocalPosition: {x: -0.13957767, y: -0.0022430373, z: 0.00047288262}
  m_LocalScale: {x: 1, y: 1, z: 1}
  m_Children: []
  m_Father: {fileID: 7984358920706417436}
  m_RootOrder: 2
  m_LocalEulerAnglesHint: {x: 0, y: 0, z: 0}
--- !u!1 &4207254075019926952
GameObject:
  m_ObjectHideFlags: 0
  m_CorrespondingSourceObject: {fileID: 0}
  m_PrefabInstance: {fileID: 0}
  m_PrefabAsset: {fileID: 0}
  serializedVersion: 6
  m_Component:
  - component: {fileID: 7445394513094630820}
  m_Layer: 6
  m_Name: upperarm_l
  m_TagString: Untagged
  m_Icon: {fileID: 0}
  m_NavMeshLayer: 0
  m_StaticEditorFlags: 0
  m_IsActive: 1
--- !u!4 &7445394513094630820
Transform:
  m_ObjectHideFlags: 0
  m_CorrespondingSourceObject: {fileID: 0}
  m_PrefabInstance: {fileID: 0}
  m_PrefabAsset: {fileID: 0}
  m_GameObject: {fileID: 4207254075019926952}
  m_LocalRotation: {x: 0.0015542243, y: 0.022218248, z: -0.11379966, w: 0.993254}
  m_LocalPosition: {x: -0.1541595, y: -2.664535e-16, z: -2.131628e-15}
  m_LocalScale: {x: 1, y: 1, z: 1}
  m_Children:
  - {fileID: 6621843516108669347}
  m_Father: {fileID: 5334230550543772557}
  m_RootOrder: 0
  m_LocalEulerAnglesHint: {x: 0, y: 0, z: 0}
--- !u!1 &4559989835203333108
GameObject:
  m_ObjectHideFlags: 0
  m_CorrespondingSourceObject: {fileID: 0}
  m_PrefabInstance: {fileID: 0}
  m_PrefabAsset: {fileID: 0}
  serializedVersion: 6
  m_Component:
  - component: {fileID: 5278367424184741326}
  m_Layer: 6
  m_Name: Bodyparts
  m_TagString: Untagged
  m_Icon: {fileID: 0}
  m_NavMeshLayer: 0
  m_StaticEditorFlags: 0
  m_IsActive: 1
--- !u!4 &5278367424184741326
Transform:
  m_ObjectHideFlags: 0
  m_CorrespondingSourceObject: {fileID: 0}
  m_PrefabInstance: {fileID: 0}
  m_PrefabAsset: {fileID: 0}
  m_GameObject: {fileID: 4559989835203333108}
  m_LocalRotation: {x: -0.7071068, y: 0, z: -0, w: 0.7071068}
  m_LocalPosition: {x: -0, y: 0, z: 0}
  m_LocalScale: {x: 1, y: 1, z: 1}
  m_Children:
  - {fileID: 8774347840185441957}
  m_Father: {fileID: 5159228069126568913}
  m_RootOrder: 1
  m_LocalEulerAnglesHint: {x: 0, y: 0, z: 0}
--- !u!1 &4837397751916949886
GameObject:
  m_ObjectHideFlags: 0
  m_CorrespondingSourceObject: {fileID: 0}
  m_PrefabInstance: {fileID: 0}
  m_PrefabAsset: {fileID: 0}
  serializedVersion: 6
  m_Component:
  - component: {fileID: 9128612315683750238}
  m_Layer: 6
  m_Name: foot_l
  m_TagString: Untagged
  m_Icon: {fileID: 0}
  m_NavMeshLayer: 0
  m_StaticEditorFlags: 0
  m_IsActive: 1
--- !u!4 &9128612315683750238
Transform:
  m_ObjectHideFlags: 0
  m_CorrespondingSourceObject: {fileID: 0}
  m_PrefabInstance: {fileID: 0}
  m_PrefabAsset: {fileID: 0}
  m_GameObject: {fileID: 4837397751916949886}
  m_LocalRotation: {x: -0.019583104, y: -0.014337628, z: -0.016081654, w: 0.9995761}
  m_LocalPosition: {x: 0.15340362, y: 0.01794422, z: -0.0011433699}
  m_LocalScale: {x: 1, y: 1, z: 1}
  m_Children:
  - {fileID: 4695395914520231316}
  m_Father: {fileID: 2667347841406956250}
  m_RootOrder: 0
  m_LocalEulerAnglesHint: {x: 0, y: 0, z: 0}
--- !u!1 &5011173552041166313
GameObject:
  m_ObjectHideFlags: 0
  m_CorrespondingSourceObject: {fileID: 0}
  m_PrefabInstance: {fileID: 0}
  m_PrefabAsset: {fileID: 0}
  serializedVersion: 6
  m_Component:
  - component: {fileID: 6934331374597603226}
  m_Layer: 6
  m_Name: hornC_01_r
  m_TagString: Untagged
  m_Icon: {fileID: 0}
  m_NavMeshLayer: 0
  m_StaticEditorFlags: 0
  m_IsActive: 1
--- !u!4 &6934331374597603226
Transform:
  m_ObjectHideFlags: 0
  m_CorrespondingSourceObject: {fileID: 0}
  m_PrefabInstance: {fileID: 0}
  m_PrefabAsset: {fileID: 0}
  m_GameObject: {fileID: 5011173552041166313}
  m_LocalRotation: {x: 0.47399396, y: 5.5526276e-16, z: 0.88052815, w: -1.0314995e-15}
  m_LocalPosition: {x: 0.06945347, y: 0.0049800063, z: 0.235986}
  m_LocalScale: {x: 1, y: 1, z: 1}
  m_Children:
  - {fileID: 4068756319112088880}
  m_Father: {fileID: 6911241748742393243}
  m_RootOrder: 8
  m_LocalEulerAnglesHint: {x: 0, y: 0, z: 0}
--- !u!1 &5038333499544317942
GameObject:
  m_ObjectHideFlags: 0
  m_CorrespondingSourceObject: {fileID: 0}
  m_PrefabInstance: {fileID: 0}
  m_PrefabAsset: {fileID: 0}
  serializedVersion: 6
  m_Component:
  - component: {fileID: 2247638118362572083}
  m_Layer: 6
  m_Name: clavicle_r
  m_TagString: Untagged
  m_Icon: {fileID: 0}
  m_NavMeshLayer: 0
  m_StaticEditorFlags: 0
  m_IsActive: 1
--- !u!4 &2247638118362572083
Transform:
  m_ObjectHideFlags: 0
  m_CorrespondingSourceObject: {fileID: 0}
  m_PrefabInstance: {fileID: 0}
  m_PrefabAsset: {fileID: 0}
  m_GameObject: {fileID: 5038333499544317942}
  m_LocalRotation: {x: 0.72198325, y: 0.03173624, z: 0.67331934, w: -0.15612186}
  m_LocalPosition: {x: -0.06351176, y: 0.030065548, z: 0.20842399}
  m_LocalScale: {x: 1, y: 1, z: 1}
  m_Children:
  - {fileID: 1162167969366848456}
  m_Father: {fileID: 1908796047003164183}
  m_RootOrder: 1
  m_LocalEulerAnglesHint: {x: 0, y: 0, z: 0}
--- !u!1 &5371718674331670545
GameObject:
  m_ObjectHideFlags: 0
  m_CorrespondingSourceObject: {fileID: 0}
  m_PrefabInstance: {fileID: 0}
  m_PrefabAsset: {fileID: 0}
  serializedVersion: 6
  m_Component:
  - component: {fileID: 4370629894795678910}
  m_Layer: 6
  m_Name: Jaw
  m_TagString: Untagged
  m_Icon: {fileID: 0}
  m_NavMeshLayer: 0
  m_StaticEditorFlags: 0
  m_IsActive: 1
--- !u!4 &4370629894795678910
Transform:
  m_ObjectHideFlags: 0
  m_CorrespondingSourceObject: {fileID: 0}
  m_PrefabInstance: {fileID: 0}
  m_PrefabAsset: {fileID: 0}
  m_GameObject: {fileID: 5371718674331670545}
  m_LocalRotation: {x: -0, y: -0.7071068, z: 0, w: 0.7071068}
  m_LocalPosition: {x: 0.16025886, y: 0.020835321, z: 1.5729948e-18}
  m_LocalScale: {x: 1, y: 1, z: 1}
  m_Children: []
  m_Father: {fileID: 6911241748742393243}
  m_RootOrder: 9
  m_LocalEulerAnglesHint: {x: 0, y: 0, z: 0}
--- !u!1 &5520256625020934562
GameObject:
  m_ObjectHideFlags: 0
  m_CorrespondingSourceObject: {fileID: 0}
  m_PrefabInstance: {fileID: 0}
  m_PrefabAsset: {fileID: 0}
  serializedVersion: 6
  m_Component:
  - component: {fileID: 8232324365434380373}
  m_Layer: 6
  m_Name: calf_r
  m_TagString: Untagged
  m_Icon: {fileID: 0}
  m_NavMeshLayer: 0
  m_StaticEditorFlags: 0
  m_IsActive: 1
--- !u!4 &8232324365434380373
Transform:
  m_ObjectHideFlags: 0
  m_CorrespondingSourceObject: {fileID: 0}
  m_PrefabInstance: {fileID: 0}
  m_PrefabAsset: {fileID: 0}
  m_GameObject: {fileID: 5520256625020934562}
  m_LocalRotation: {x: -0.05363183, y: 0.00061813387, z: 0.022184182, w: 0.99831414}
  m_LocalPosition: {x: -0.25370672, y: 0.010923714, z: -0.0016354381}
  m_LocalScale: {x: 1, y: 1, z: 1}
  m_Children:
  - {fileID: 560071389976804984}
  m_Father: {fileID: 8872634055185608102}
  m_RootOrder: 0
  m_LocalEulerAnglesHint: {x: 0, y: 0, z: 0}
--- !u!1 &5535647646396653931
GameObject:
  m_ObjectHideFlags: 0
  m_CorrespondingSourceObject: {fileID: 0}
  m_PrefabInstance: {fileID: 0}
  m_PrefabAsset: {fileID: 0}
  serializedVersion: 6
  m_Component:
  - component: {fileID: 5159228069126568913}
  - component: {fileID: 4617311004935347474}
  - component: {fileID: 1183606783}
  - component: {fileID: 1183606782}
  - component: {fileID: 1183606784}
  - component: {fileID: 1183606785}
  m_Layer: 6
  m_Name: P02
  m_TagString: Untagged
  m_Icon: {fileID: 0}
  m_NavMeshLayer: 0
  m_StaticEditorFlags: 0
  m_IsActive: 1
--- !u!4 &5159228069126568913
Transform:
  m_ObjectHideFlags: 0
  m_CorrespondingSourceObject: {fileID: 0}
  m_PrefabInstance: {fileID: 0}
  m_PrefabAsset: {fileID: 0}
  m_GameObject: {fileID: 5535647646396653931}
  m_LocalRotation: {x: 0, y: 0, z: 0, w: 1}
  m_LocalPosition: {x: 0, y: 0, z: 0}
  m_LocalScale: {x: 1, y: 1, z: 1}
  m_Children:
  - {fileID: 1827642009972118997}
  - {fileID: 5278367424184741326}
  - {fileID: 1037707589056507073}
  - {fileID: 7445895361139134072}
  - {fileID: 3304726918609368932}
  - {fileID: 9043589632627961925}
  - {fileID: 568313055959828704}
  m_Father: {fileID: 0}
  m_RootOrder: 0
  m_LocalEulerAnglesHint: {x: 0, y: 0, z: 0}
--- !u!95 &4617311004935347474
Animator:
  serializedVersion: 3
  m_ObjectHideFlags: 0
  m_CorrespondingSourceObject: {fileID: 0}
  m_PrefabInstance: {fileID: 0}
  m_PrefabAsset: {fileID: 0}
  m_GameObject: {fileID: 5535647646396653931}
  m_Enabled: 1
  m_Avatar: {fileID: 9000000, guid: eeebdeb8be91e0e43ae9170c2d8e4279, type: 3}
  m_Controller: {fileID: 9100000, guid: f5e71d2eda3d6cc40857811c187df502, type: 2}
  m_CullingMode: 1
  m_UpdateMode: 0
  m_ApplyRootMotion: 1
  m_LinearVelocityBlending: 0
  m_WarningMessage: 
  m_HasTransformHierarchy: 1
  m_AllowConstantClipSamplingOptimization: 1
  m_KeepAnimatorControllerStateOnDisable: 0
--- !u!195 &1183606783
NavMeshAgent:
  m_ObjectHideFlags: 0
  m_CorrespondingSourceObject: {fileID: 0}
  m_PrefabInstance: {fileID: 0}
  m_PrefabAsset: {fileID: 0}
  m_GameObject: {fileID: 5535647646396653931}
  m_Enabled: 1
  m_AgentTypeID: 0
  m_Radius: 0.5
  m_Speed: 3.5
  m_Acceleration: 8
  avoidancePriority: 50
  m_AngularSpeed: 120
  m_StoppingDistance: 0
  m_AutoTraverseOffMeshLink: 1
  m_AutoBraking: 1
  m_AutoRepath: 1
  m_Height: 2
  m_BaseOffset: 0
  m_WalkableMask: 4294967295
  m_ObstacleAvoidanceType: 4
--- !u!114 &1183606782
MonoBehaviour:
  m_ObjectHideFlags: 0
  m_CorrespondingSourceObject: {fileID: 0}
  m_PrefabInstance: {fileID: 0}
  m_PrefabAsset: {fileID: 0}
  m_GameObject: {fileID: 5535647646396653931}
  m_Enabled: 1
  m_EditorHideFlags: 0
  m_Script: {fileID: 11500000, guid: 1c16c89b45b70094193ed97c4db1caca, type: 3}
  m_Name: 
  m_EditorClassIdentifier: 
  state: 0
  id: 1
--- !u!114 &1183606784
MonoBehaviour:
  m_ObjectHideFlags: 0
  m_CorrespondingSourceObject: {fileID: 0}
  m_PrefabInstance: {fileID: 0}
  m_PrefabAsset: {fileID: 0}
  m_GameObject: {fileID: 5535647646396653931}
  m_Enabled: 1
  m_EditorHideFlags: 0
  m_Script: {fileID: 11500000, guid: c0ade82fd407f59438e50f99d3bf3840, type: 3}
  m_Name: 
  m_EditorClassIdentifier: 
--- !u!114 &1183606785
MonoBehaviour:
  m_ObjectHideFlags: 0
  m_CorrespondingSourceObject: {fileID: 0}
  m_PrefabInstance: {fileID: 0}
  m_PrefabAsset: {fileID: 0}
  m_GameObject: {fileID: 5535647646396653931}
  m_Enabled: 1
  m_EditorHideFlags: 0
  m_Script: {fileID: 11500000, guid: 8413f7119866db04d88833e4cf80bc9a, type: 3}
  m_Name: 
  m_EditorClassIdentifier: 
  minIdle: 1
  maxIdle: 5
  idlePoints:
  - {fileID: 0}
  - {fileID: 0}
  - {fileID: 0}
--- !u!1 &5690132157328462701
GameObject:
  m_ObjectHideFlags: 0
  m_CorrespondingSourceObject: {fileID: 0}
  m_PrefabInstance: {fileID: 0}
  m_PrefabAsset: {fileID: 0}
  serializedVersion: 6
  m_Component:
  - component: {fileID: 6315707854114896393}
  m_Layer: 6
  m_Name: tail_01
  m_TagString: Untagged
  m_Icon: {fileID: 0}
  m_NavMeshLayer: 0
  m_StaticEditorFlags: 0
  m_IsActive: 1
--- !u!4 &6315707854114896393
Transform:
  m_ObjectHideFlags: 0
  m_CorrespondingSourceObject: {fileID: 0}
  m_PrefabInstance: {fileID: 0}
  m_PrefabAsset: {fileID: 0}
  m_GameObject: {fileID: 5690132157328462701}
  m_LocalRotation: {x: -0.3024084, y: 0.95317847, z: 6.7676127e-16, w: -2.7212164e-16}
  m_LocalPosition: {x: -0.030352466, y: 0.25417748, z: 2.7145378e-16}
  m_LocalScale: {x: 1, y: 1, z: 1}
  m_Children:
  - {fileID: 7617020266490363076}
  m_Father: {fileID: 6774633103625404552}
  m_RootOrder: 1
  m_LocalEulerAnglesHint: {x: 0, y: 0, z: 0}
--- !u!1 &5808626251607755776
GameObject:
  m_ObjectHideFlags: 0
  m_CorrespondingSourceObject: {fileID: 0}
  m_PrefabInstance: {fileID: 0}
  m_PrefabAsset: {fileID: 0}
  serializedVersion: 6
  m_Component:
  - component: {fileID: 7521081211250957379}
  m_Layer: 6
  m_Name: thigh_l
  m_TagString: Untagged
  m_Icon: {fileID: 0}
  m_NavMeshLayer: 0
  m_StaticEditorFlags: 0
  m_IsActive: 1
--- !u!4 &7521081211250957379
Transform:
  m_ObjectHideFlags: 0
  m_CorrespondingSourceObject: {fileID: 0}
  m_PrefabInstance: {fileID: 0}
  m_PrefabAsset: {fileID: 0}
  m_GameObject: {fileID: 5808626251607755776}
  m_LocalRotation: {x: 0.07721848, y: 0.0319301, z: -0.13278173, w: 0.9876167}
  m_LocalPosition: {x: 0.022657402, y: -0.0018067064, z: -0.17085041}
  m_LocalScale: {x: 1, y: 1, z: 1}
  m_Children:
  - {fileID: 2667347841406956250}
  m_Father: {fileID: 6774633103625404552}
  m_RootOrder: 2
  m_LocalEulerAnglesHint: {x: 0, y: 0, z: 0}
--- !u!1 &5848016568249438807
GameObject:
  m_ObjectHideFlags: 0
  m_CorrespondingSourceObject: {fileID: 0}
  m_PrefabInstance: {fileID: 0}
  m_PrefabAsset: {fileID: 0}
  serializedVersion: 6
  m_Component:
  - component: {fileID: 6949369495649763264}
  - component: {fileID: 5904062699574847018}
  - component: {fileID: 8912890860662137200}
  m_Layer: 6
  m_Name: Hat16
  m_TagString: Untagged
  m_Icon: {fileID: 0}
  m_NavMeshLayer: 0
  m_StaticEditorFlags: 0
  m_IsActive: 1
--- !u!4 &6949369495649763264
Transform:
  m_ObjectHideFlags: 0
  m_CorrespondingSourceObject: {fileID: 0}
  m_PrefabInstance: {fileID: 0}
  m_PrefabAsset: {fileID: 0}
  m_GameObject: {fileID: 5848016568249438807}
  m_LocalRotation: {x: 0, y: -0, z: -0, w: 1}
  m_LocalPosition: {x: -0.50713986, y: 0.005178791, z: -2.2737367e-15}
  m_LocalScale: {x: 1, y: 1, z: 1}
  m_Children: []
  m_Father: {fileID: 6911241748742393243}
  m_RootOrder: 1
  m_LocalEulerAnglesHint: {x: 0, y: 0, z: 0}
--- !u!33 &5904062699574847018
MeshFilter:
  m_ObjectHideFlags: 0
  m_CorrespondingSourceObject: {fileID: 0}
  m_PrefabInstance: {fileID: 0}
  m_PrefabAsset: {fileID: 0}
  m_GameObject: {fileID: 5848016568249438807}
  m_Mesh: {fileID: -2153779550561457093, guid: 7e6fcf30eabcaec43bb46e1d611f9df5, type: 3}
--- !u!23 &8912890860662137200
MeshRenderer:
  m_ObjectHideFlags: 0
  m_CorrespondingSourceObject: {fileID: 0}
  m_PrefabInstance: {fileID: 0}
  m_PrefabAsset: {fileID: 0}
  m_GameObject: {fileID: 5848016568249438807}
  m_Enabled: 1
  m_CastShadows: 1
  m_ReceiveShadows: 1
  m_DynamicOccludee: 1
  m_StaticShadowCaster: 0
  m_MotionVectors: 1
  m_LightProbeUsage: 1
  m_ReflectionProbeUsage: 1
  m_RayTracingMode: 2
  m_RayTraceProcedural: 0
  m_RenderingLayerMask: 1
  m_RendererPriority: 0
  m_Materials:
  - {fileID: 2100000, guid: f5fb83cc0815eec429d8e3c27094e525, type: 2}
  m_StaticBatchInfo:
    firstSubMesh: 0
    subMeshCount: 0
  m_StaticBatchRoot: {fileID: 0}
  m_ProbeAnchor: {fileID: 0}
  m_LightProbeVolumeOverride: {fileID: 0}
  m_ScaleInLightmap: 1
  m_ReceiveGI: 1
  m_PreserveUVs: 0
  m_IgnoreNormalsForChartDetection: 0
  m_ImportantGI: 0
  m_StitchLightmapSeams: 1
  m_SelectedEditorRenderState: 3
  m_MinimumChartSize: 4
  m_AutoUVMaxDistance: 0.5
  m_AutoUVMaxAngle: 89
  m_LightmapParameters: {fileID: 0}
  m_SortingLayerID: 0
  m_SortingLayer: 0
  m_SortingOrder: 0
  m_AdditionalVertexStreams: {fileID: 0}
--- !u!1 &5927110442937014719
GameObject:
  m_ObjectHideFlags: 0
  m_CorrespondingSourceObject: {fileID: 0}
  m_PrefabInstance: {fileID: 0}
  m_PrefabAsset: {fileID: 0}
  serializedVersion: 6
  m_Component:
  - component: {fileID: 8360814122869198876}
  m_Layer: 6
  m_Name: hornA_02_l
  m_TagString: Untagged
  m_Icon: {fileID: 0}
  m_NavMeshLayer: 0
  m_StaticEditorFlags: 0
  m_IsActive: 1
--- !u!4 &8360814122869198876
Transform:
  m_ObjectHideFlags: 0
  m_CorrespondingSourceObject: {fileID: 0}
  m_PrefabInstance: {fileID: 0}
  m_PrefabAsset: {fileID: 0}
  m_GameObject: {fileID: 5927110442937014719}
  m_LocalRotation: {x: 0, y: -0.5431475, z: -0, w: 0.8396373}
  m_LocalPosition: {x: -0.67569554, y: -2.8865798e-17, z: -5.684342e-16}
  m_LocalScale: {x: 1, y: 1, z: 1}
  m_Children: []
  m_Father: {fileID: 3133067334561422514}
  m_RootOrder: 0
  m_LocalEulerAnglesHint: {x: 0, y: 0, z: 0}
--- !u!1 &5999992933995803389
GameObject:
  m_ObjectHideFlags: 0
  m_CorrespondingSourceObject: {fileID: 0}
  m_PrefabInstance: {fileID: 0}
  m_PrefabAsset: {fileID: 0}
  serializedVersion: 6
  m_Component:
  - component: {fileID: 3133067334561422514}
  m_Layer: 6
  m_Name: hornA_01_l
  m_TagString: Untagged
  m_Icon: {fileID: 0}
  m_NavMeshLayer: 0
  m_StaticEditorFlags: 0
  m_IsActive: 1
--- !u!4 &3133067334561422514
Transform:
  m_ObjectHideFlags: 0
  m_CorrespondingSourceObject: {fileID: 0}
  m_PrefabInstance: {fileID: 0}
  m_PrefabAsset: {fileID: 0}
  m_GameObject: {fileID: 5999992933995803389}
  m_LocalRotation: {x: -0.0013932837, y: -0.20964532, z: 0.0064980704, w: 0.97775495}
  m_LocalPosition: {x: -0.120417975, y: 0.0049800063, z: -0.081912056}
  m_LocalScale: {x: 1, y: 1, z: 1}
  m_Children:
  - {fileID: 8360814122869198876}
  m_Father: {fileID: 6911241748742393243}
  m_RootOrder: 3
  m_LocalEulerAnglesHint: {x: 0, y: 0, z: 0}
--- !u!1 &6111111336893823937
GameObject:
  m_ObjectHideFlags: 0
  m_CorrespondingSourceObject: {fileID: 0}
  m_PrefabInstance: {fileID: 0}
  m_PrefabAsset: {fileID: 0}
  serializedVersion: 6
  m_Component:
  - component: {fileID: 729765173281850776}
  m_Layer: 6
  m_Name: drill_l
  m_TagString: Untagged
  m_Icon: {fileID: 0}
  m_NavMeshLayer: 0
  m_StaticEditorFlags: 0
  m_IsActive: 1
--- !u!4 &729765173281850776
Transform:
  m_ObjectHideFlags: 0
  m_CorrespondingSourceObject: {fileID: 0}
  m_PrefabInstance: {fileID: 0}
  m_PrefabAsset: {fileID: 0}
  m_GameObject: {fileID: 6111111336893823937}
  m_LocalRotation: {x: 0.70580983, y: -0.0022091598, z: 0.0003184791, w: 0.7083978}
  m_LocalPosition: {x: -0.11008295, y: -0.009449474, z: 0.0006042766}
  m_LocalScale: {x: 1, y: 1, z: 1}
  m_Children: []
  m_Father: {fileID: 7984358920706417436}
  m_RootOrder: 0
  m_LocalEulerAnglesHint: {x: 0, y: 0, z: 0}
--- !u!1 &6135106831903837573
GameObject:
  m_ObjectHideFlags: 0
  m_CorrespondingSourceObject: {fileID: 0}
  m_PrefabInstance: {fileID: 0}
  m_PrefabAsset: {fileID: 0}
  serializedVersion: 6
  m_Component:
  - component: {fileID: 8872634055185608102}
  m_Layer: 6
  m_Name: thigh_r
  m_TagString: Untagged
  m_Icon: {fileID: 0}
  m_NavMeshLayer: 0
  m_StaticEditorFlags: 0
  m_IsActive: 1
--- !u!4 &8872634055185608102
Transform:
  m_ObjectHideFlags: 0
  m_CorrespondingSourceObject: {fileID: 0}
  m_PrefabInstance: {fileID: 0}
  m_PrefabAsset: {fileID: 0}
  m_GameObject: {fileID: 6135106831903837573}
  m_LocalRotation: {x: -0.031930987, y: 0.077209614, z: 0.98761743, w: 0.13278146}
  m_LocalPosition: {x: 0.022657752, y: -0.0018067972, z: 0.17085}
  m_LocalScale: {x: 1, y: 1, z: 1}
  m_Children:
  - {fileID: 8232324365434380373}
  m_Father: {fileID: 6774633103625404552}
  m_RootOrder: 3
  m_LocalEulerAnglesHint: {x: 0, y: 0, z: 0}
--- !u!1 &6381765542424353722
GameObject:
  m_ObjectHideFlags: 0
  m_CorrespondingSourceObject: {fileID: 0}
  m_PrefabInstance: {fileID: 0}
  m_PrefabAsset: {fileID: 0}
  serializedVersion: 6
  m_Component:
  - component: {fileID: 6621843516108669347}
  m_Layer: 6
  m_Name: lowerarm_l
  m_TagString: Untagged
  m_Icon: {fileID: 0}
  m_NavMeshLayer: 0
  m_StaticEditorFlags: 0
  m_IsActive: 1
--- !u!4 &6621843516108669347
Transform:
  m_ObjectHideFlags: 0
  m_CorrespondingSourceObject: {fileID: 0}
  m_PrefabInstance: {fileID: 0}
  m_PrefabAsset: {fileID: 0}
  m_GameObject: {fileID: 6381765542424353722}
  m_LocalRotation: {x: 1.485756e-30, y: 5.747986e-29, z: 0.03987671, w: 0.99920464}
  m_LocalPosition: {x: -0.35891947, y: -6.661338e-18, z: -4.2632563e-16}
  m_LocalScale: {x: 1, y: 1, z: 1}
  m_Children:
  - {fileID: 7984358920706417436}
  m_Father: {fileID: 7445394513094630820}
  m_RootOrder: 0
  m_LocalEulerAnglesHint: {x: 0, y: 0, z: 0}
--- !u!1 &6584889404913445555
GameObject:
  m_ObjectHideFlags: 0
  m_CorrespondingSourceObject: {fileID: 0}
  m_PrefabInstance: {fileID: 0}
  m_PrefabAsset: {fileID: 0}
  serializedVersion: 6
  m_Component:
  - component: {fileID: 6876275119487738818}
  - component: {fileID: 8572237162057629125}
  m_Layer: 6
  m_Name: Eye11
  m_TagString: Untagged
  m_Icon: {fileID: 0}
  m_NavMeshLayer: 0
  m_StaticEditorFlags: 0
  m_IsActive: 1
--- !u!4 &6876275119487738818
Transform:
  m_ObjectHideFlags: 0
  m_CorrespondingSourceObject: {fileID: 0}
  m_PrefabInstance: {fileID: 0}
  m_PrefabAsset: {fileID: 0}
  m_GameObject: {fileID: 6584889404913445555}
  m_LocalRotation: {x: 0, y: -0, z: -0, w: 1}
  m_LocalPosition: {x: -0, y: 0, z: 0}
  m_LocalScale: {x: 1, y: 1, z: 1}
  m_Children: []
  m_Father: {fileID: 1037707589056507073}
  m_RootOrder: 0
  m_LocalEulerAnglesHint: {x: 0, y: 0, z: 0}
--- !u!137 &8572237162057629125
SkinnedMeshRenderer:
  m_ObjectHideFlags: 0
  m_CorrespondingSourceObject: {fileID: 0}
  m_PrefabInstance: {fileID: 0}
  m_PrefabAsset: {fileID: 0}
  m_GameObject: {fileID: 6584889404913445555}
  m_Enabled: 1
  m_CastShadows: 1
  m_ReceiveShadows: 1
  m_DynamicOccludee: 1
  m_StaticShadowCaster: 0
  m_MotionVectors: 1
  m_LightProbeUsage: 1
  m_ReflectionProbeUsage: 1
  m_RayTracingMode: 0
  m_RayTraceProcedural: 0
  m_RenderingLayerMask: 1
  m_RendererPriority: 0
  m_Materials:
  - {fileID: 2100000, guid: f5fb83cc0815eec429d8e3c27094e525, type: 2}
  m_StaticBatchInfo:
    firstSubMesh: 0
    subMeshCount: 0
  m_StaticBatchRoot: {fileID: 0}
  m_ProbeAnchor: {fileID: 0}
  m_LightProbeVolumeOverride: {fileID: 0}
  m_ScaleInLightmap: 1
  m_ReceiveGI: 1
  m_PreserveUVs: 0
  m_IgnoreNormalsForChartDetection: 0
  m_ImportantGI: 0
  m_StitchLightmapSeams: 1
  m_SelectedEditorRenderState: 3
  m_MinimumChartSize: 4
  m_AutoUVMaxDistance: 0.5
  m_AutoUVMaxAngle: 89
  m_LightmapParameters: {fileID: 0}
  m_SortingLayerID: 0
  m_SortingLayer: 0
  m_SortingOrder: 0
  serializedVersion: 2
  m_Quality: 0
  m_UpdateWhenOffscreen: 0
  m_SkinnedMotionVectors: 1
  m_Mesh: {fileID: -6452080115079695290, guid: 7e6fcf30eabcaec43bb46e1d611f9df5, type: 3}
  m_Bones:
  - {fileID: 9043589632627961925}
  - {fileID: 6774633103625404552}
  - {fileID: 6452747152157738658}
  - {fileID: 5826281215127747192}
  - {fileID: 1908796047003164183}
  - {fileID: 8941037273411902607}
  - {fileID: 6911241748742393243}
  - {fileID: 3084064516644617199}
  - {fileID: 5369863300984200627}
  - {fileID: 4370629894795678910}
  - {fileID: 3731956662735818994}
  - {fileID: 7485908624652795727}
  - {fileID: 3133067334561422514}
  - {fileID: 8360814122869198876}
  - {fileID: 1490259298238108995}
  - {fileID: 111471470414272800}
  - {fileID: 1617857800121189459}
  - {fileID: 2495930890019992819}
  - {fileID: 4187420402931764656}
  - {fileID: 3073728468277439952}
  - {fileID: 3008700734592211699}
  - {fileID: 6934331374597603226}
  - {fileID: 4068756319112088880}
  - {fileID: 8571771992253332423}
  - {fileID: 6878682751172195402}
  - {fileID: 2305774594062624554}
  - {fileID: 5334230550543772557}
  - {fileID: 7445394513094630820}
  - {fileID: 6621843516108669347}
  - {fileID: 7984358920706417436}
  - {fileID: 729765173281850776}
  - {fileID: 94898364965929039}
  - {fileID: 7483853432533810658}
  - {fileID: 5899325427943692780}
  - {fileID: 2247638118362572083}
  - {fileID: 1162167969366848456}
  - {fileID: 1455654243838238831}
  - {fileID: 2267281236069501966}
  - {fileID: 6886303157918058656}
  - {fileID: 2750957032992240303}
  - {fileID: 6206285906987827307}
  - {fileID: 5533906102648240451}
  - {fileID: 361020150149000171}
  - {fileID: 7521081211250957379}
  - {fileID: 2667347841406956250}
  - {fileID: 9128612315683750238}
  - {fileID: 4695395914520231316}
  - {fileID: 6315707854114896393}
  - {fileID: 7617020266490363076}
  - {fileID: 1531385316315636189}
  - {fileID: 5163321031199741170}
  - {fileID: 8872634055185608102}
  - {fileID: 8232324365434380373}
  - {fileID: 560071389976804984}
  - {fileID: 3642371643029039977}
  m_BlendShapeWeights: []
  m_RootBone: {fileID: 9043589632627961925}
  m_AABB:
    m_Center: {x: 0, y: -0.16753714, z: 1.3265339}
    m_Extent: {x: 0.2187107, y: 0.07172324, z: 0.08011973}
  m_DirtyAABB: 0
--- !u!1 &6969782972490075603
GameObject:
  m_ObjectHideFlags: 0
  m_CorrespondingSourceObject: {fileID: 0}
  m_PrefabInstance: {fileID: 0}
  m_PrefabAsset: {fileID: 0}
  serializedVersion: 6
  m_Component:
  - component: {fileID: 5899325427943692780}
  m_Layer: 6
  m_Name: LowerJaw_l
  m_TagString: Untagged
  m_Icon: {fileID: 0}
  m_NavMeshLayer: 0
  m_StaticEditorFlags: 0
  m_IsActive: 1
--- !u!4 &5899325427943692780
Transform:
  m_ObjectHideFlags: 0
  m_CorrespondingSourceObject: {fileID: 0}
  m_PrefabInstance: {fileID: 0}
  m_PrefabAsset: {fileID: 0}
  m_GameObject: {fileID: 6969782972490075603}
  m_LocalRotation: {x: 0.70580983, y: -0.0022091598, z: 0.0003184791, w: 0.7083978}
  m_LocalPosition: {x: -0.27837098, y: 0.14700453, z: -0.00056984223}
  m_LocalScale: {x: 1, y: 1, z: 1}
  m_Children: []
  m_Father: {fileID: 7984358920706417436}
  m_RootOrder: 1
  m_LocalEulerAnglesHint: {x: 0, y: 0, z: 0}
--- !u!1 &7025376460011425504
GameObject:
  m_ObjectHideFlags: 0
  m_CorrespondingSourceObject: {fileID: 0}
  m_PrefabInstance: {fileID: 0}
  m_PrefabAsset: {fileID: 0}
  serializedVersion: 6
  m_Component:
  - component: {fileID: 2667347841406956250}
  m_Layer: 6
  m_Name: calf_l
  m_TagString: Untagged
  m_Icon: {fileID: 0}
  m_NavMeshLayer: 0
  m_StaticEditorFlags: 0
  m_IsActive: 1
--- !u!4 &2667347841406956250
Transform:
  m_ObjectHideFlags: 0
  m_CorrespondingSourceObject: {fileID: 0}
  m_PrefabInstance: {fileID: 0}
  m_PrefabAsset: {fileID: 0}
  m_GameObject: {fileID: 7025376460011425504}
  m_LocalRotation: {x: -0.05363183, y: 0.00061813387, z: 0.022184182, w: 0.99831414}
  m_LocalPosition: {x: 0.25370672, y: -0.010923628, z: 0.0016361566}
  m_LocalScale: {x: 1, y: 1, z: 1}
  m_Children:
  - {fileID: 9128612315683750238}
  m_Father: {fileID: 7521081211250957379}
  m_RootOrder: 0
  m_LocalEulerAnglesHint: {x: 0, y: 0, z: 0}
--- !u!1 &7091449949357370633
GameObject:
  m_ObjectHideFlags: 0
  m_CorrespondingSourceObject: {fileID: 0}
  m_PrefabInstance: {fileID: 0}
  m_PrefabAsset: {fileID: 0}
  serializedVersion: 6
  m_Component:
  - component: {fileID: 1455654243838238831}
  m_Layer: 6
  m_Name: lowerarm_r
  m_TagString: Untagged
  m_Icon: {fileID: 0}
  m_NavMeshLayer: 0
  m_StaticEditorFlags: 0
  m_IsActive: 1
--- !u!4 &1455654243838238831
Transform:
  m_ObjectHideFlags: 0
  m_CorrespondingSourceObject: {fileID: 0}
  m_PrefabInstance: {fileID: 0}
  m_PrefabAsset: {fileID: 0}
  m_GameObject: {fileID: 7091449949357370633}
  m_LocalRotation: {x: 1.00992795e-29, y: 2.648741e-28, z: 0.03987671, w: 0.99920464}
  m_LocalPosition: {x: 0.35891908, y: 1.5543122e-17, z: 1.4210854e-16}
  m_LocalScale: {x: 1, y: 1, z: 1}
  m_Children:
  - {fileID: 2267281236069501966}
  m_Father: {fileID: 1162167969366848456}
  m_RootOrder: 0
  m_LocalEulerAnglesHint: {x: 0, y: 0, z: 0}
--- !u!1 &7136397755974099376
GameObject:
  m_ObjectHideFlags: 0
  m_CorrespondingSourceObject: {fileID: 0}
  m_PrefabInstance: {fileID: 0}
  m_PrefabAsset: {fileID: 0}
  serializedVersion: 6
  m_Component:
  - component: {fileID: 1908796047003164183}
  m_Layer: 6
  m_Name: spine_03
  m_TagString: Untagged
  m_Icon: {fileID: 0}
  m_NavMeshLayer: 0
  m_StaticEditorFlags: 0
  m_IsActive: 1
--- !u!4 &1908796047003164183
Transform:
  m_ObjectHideFlags: 0
  m_CorrespondingSourceObject: {fileID: 0}
  m_PrefabInstance: {fileID: 0}
  m_PrefabAsset: {fileID: 0}
  m_GameObject: {fileID: 7136397755974099376}
  m_LocalRotation: {x: -1.3548951e-16, y: 4.5886806e-17, z: -0.08148055, w: 0.99667495}
  m_LocalPosition: {x: -0.14891407, y: 1.2434498e-16, z: 4.8846454e-17}
  m_LocalScale: {x: 1, y: 1, z: 1}
  m_Children:
  - {fileID: 5334230550543772557}
  - {fileID: 2247638118362572083}
  - {fileID: 8941037273411902607}
  m_Father: {fileID: 5826281215127747192}
  m_RootOrder: 0
  m_LocalEulerAnglesHint: {x: 0, y: 0, z: 0}
--- !u!1 &7772533895754155352
GameObject:
  m_ObjectHideFlags: 0
  m_CorrespondingSourceObject: {fileID: 0}
  m_PrefabInstance: {fileID: 0}
  m_PrefabAsset: {fileID: 0}
  serializedVersion: 6
  m_Component:
  - component: {fileID: 4187420402931764656}
  m_Layer: 6
  m_Name: hornC_02_l
  m_TagString: Untagged
  m_Icon: {fileID: 0}
  m_NavMeshLayer: 0
  m_StaticEditorFlags: 0
  m_IsActive: 1
--- !u!4 &4187420402931764656
Transform:
  m_ObjectHideFlags: 0
  m_CorrespondingSourceObject: {fileID: 0}
  m_PrefabInstance: {fileID: 0}
  m_PrefabAsset: {fileID: 0}
  m_GameObject: {fileID: 7772533895754155352}
  m_LocalRotation: {x: 0, y: -0.28746313, z: -0, w: 0.95779175}
  m_LocalPosition: {x: -0.35610884, y: 2.8398991e-31, z: -1.4210854e-16}
  m_LocalScale: {x: 1, y: 1, z: 1}
  m_Children: []
  m_Father: {fileID: 2495930890019992819}
  m_RootOrder: 0
  m_LocalEulerAnglesHint: {x: 0, y: 0, z: 0}
--- !u!1 &7863824224431310421
GameObject:
  m_ObjectHideFlags: 0
  m_CorrespondingSourceObject: {fileID: 0}
  m_PrefabInstance: {fileID: 0}
  m_PrefabAsset: {fileID: 0}
  serializedVersion: 6
  m_Component:
  - component: {fileID: 6774633103625404552}
  m_Layer: 6
  m_Name: pelvis
  m_TagString: Untagged
  m_Icon: {fileID: 0}
  m_NavMeshLayer: 0
  m_StaticEditorFlags: 0
  m_IsActive: 1
--- !u!4 &6774633103625404552
Transform:
  m_ObjectHideFlags: 0
  m_CorrespondingSourceObject: {fileID: 0}
  m_PrefabInstance: {fileID: 0}
  m_PrefabAsset: {fileID: 0}
  m_GameObject: {fileID: 7863824224431310421}
  m_LocalRotation: {x: 0.08801344, y: 0.7016079, z: 0.08801344, w: 0.7016079}
  m_LocalPosition: {x: -3.0999767e-32, y: -0.0007635658, z: 0.46243998}
  m_LocalScale: {x: 1, y: 1, z: 1}
  m_Children:
  - {fileID: 6452747152157738658}
  - {fileID: 6315707854114896393}
  - {fileID: 7521081211250957379}
  - {fileID: 8872634055185608102}
  m_Father: {fileID: 9043589632627961925}
  m_RootOrder: 0
  m_LocalEulerAnglesHint: {x: 0, y: 0, z: 0}
--- !u!1 &7992248972684625013
GameObject:
  m_ObjectHideFlags: 0
  m_CorrespondingSourceObject: {fileID: 0}
  m_PrefabInstance: {fileID: 0}
  m_PrefabAsset: {fileID: 0}
  serializedVersion: 6
  m_Component:
  - component: {fileID: 5163321031199741170}
  m_Layer: 6
  m_Name: tail_04
  m_TagString: Untagged
  m_Icon: {fileID: 0}
  m_NavMeshLayer: 0
  m_StaticEditorFlags: 0
  m_IsActive: 1
--- !u!4 &5163321031199741170
Transform:
  m_ObjectHideFlags: 0
  m_CorrespondingSourceObject: {fileID: 0}
  m_PrefabInstance: {fileID: 0}
  m_PrefabAsset: {fileID: 0}
  m_GameObject: {fileID: 7992248972684625013}
  m_LocalRotation: {x: 0, y: 0, z: -0.06756819, w: 0.99771464}
  m_LocalPosition: {x: -0.30677703, y: 0.011362112, z: -3.952184e-17}
  m_LocalScale: {x: 1, y: 1, z: 1}
  m_Children: []
  m_Father: {fileID: 1531385316315636189}
  m_RootOrder: 0
  m_LocalEulerAnglesHint: {x: 0, y: 0, z: 0}
--- !u!1 &8156005395729556355
GameObject:
  m_ObjectHideFlags: 0
  m_CorrespondingSourceObject: {fileID: 0}
  m_PrefabInstance: {fileID: 0}
  m_PrefabAsset: {fileID: 0}
  serializedVersion: 6
  m_Component:
  - component: {fileID: 6911241748742393243}
  m_Layer: 6
  m_Name: head
  m_TagString: Untagged
  m_Icon: {fileID: 0}
  m_NavMeshLayer: 0
  m_StaticEditorFlags: 0
  m_IsActive: 1
--- !u!4 &6911241748742393243
Transform:
  m_ObjectHideFlags: 0
  m_CorrespondingSourceObject: {fileID: 0}
  m_PrefabInstance: {fileID: 0}
  m_PrefabAsset: {fileID: 0}
  m_GameObject: {fileID: 8156005395729556355}
  m_LocalRotation: {x: 0, y: 0, z: -0.0670836, w: 0.99774736}
  m_LocalPosition: {x: -0.30618182, y: -6.0396133e-16, z: 8.413475e-17}
  m_LocalScale: {x: 1, y: 1, z: 1}
  m_Children:
  - {fileID: 3084064516644617199}
  - {fileID: 6949369495649763264}
  - {fileID: 3731956662735818994}
  - {fileID: 3133067334561422514}
  - {fileID: 3073728468277439952}
  - {fileID: 1490259298238108995}
  - {fileID: 8571771992253332423}
  - {fileID: 2495930890019992819}
  - {fileID: 6934331374597603226}
  - {fileID: 4370629894795678910}
  m_Father: {fileID: 8941037273411902607}
  m_RootOrder: 0
  m_LocalEulerAnglesHint: {x: 0, y: 0, z: 0}
--- !u!1 &8195353512495164675
GameObject:
  m_ObjectHideFlags: 0
  m_CorrespondingSourceObject: {fileID: 0}
  m_PrefabInstance: {fileID: 0}
  m_PrefabAsset: {fileID: 0}
  serializedVersion: 6
  m_Component:
  - component: {fileID: 3073728468277439952}
  m_Layer: 6
  m_Name: hornA_01_r
  m_TagString: Untagged
  m_Icon: {fileID: 0}
  m_NavMeshLayer: 0
  m_StaticEditorFlags: 0
  m_IsActive: 1
--- !u!4 &3073728468277439952
Transform:
  m_ObjectHideFlags: 0
  m_CorrespondingSourceObject: {fileID: 0}
  m_PrefabInstance: {fileID: 0}
  m_PrefabAsset: {fileID: 0}
  m_GameObject: {fileID: 8195353512495164675}
  m_LocalRotation: {x: 0.20964532, y: -0.0013932837, z: 0.97775495, w: -0.0064980704}
  m_LocalPosition: {x: -0.12041652, y: 0.0049800063, z: 0.08191209}
  m_LocalScale: {x: 1, y: 1, z: 1}
  m_Children:
  - {fileID: 3008700734592211699}
  m_Father: {fileID: 6911241748742393243}
  m_RootOrder: 4
  m_LocalEulerAnglesHint: {x: 0, y: 0, z: 0}
--- !u!1 &8365387203568628894
GameObject:
  m_ObjectHideFlags: 0
  m_CorrespondingSourceObject: {fileID: 0}
  m_PrefabInstance: {fileID: 0}
  m_PrefabAsset: {fileID: 0}
  serializedVersion: 6
  m_Component:
  - component: {fileID: 7617020266490363076}
  m_Layer: 6
  m_Name: tail_02
  m_TagString: Untagged
  m_Icon: {fileID: 0}
  m_NavMeshLayer: 0
  m_StaticEditorFlags: 0
  m_IsActive: 1
--- !u!4 &7617020266490363076
Transform:
  m_ObjectHideFlags: 0
  m_CorrespondingSourceObject: {fileID: 0}
  m_PrefabInstance: {fileID: 0}
  m_PrefabAsset: {fileID: 0}
  m_GameObject: {fileID: 8365387203568628894}
  m_LocalRotation: {x: 0, y: 0, z: -0.09367575, w: 0.9956028}
  m_LocalPosition: {x: -0.28033707, y: 4.973799e-16, z: -9.895423e-17}
  m_LocalScale: {x: 1, y: 1, z: 1}
  m_Children:
  - {fileID: 1531385316315636189}
  m_Father: {fileID: 6315707854114896393}
  m_RootOrder: 0
  m_LocalEulerAnglesHint: {x: 0, y: 0, z: 0}
--- !u!1 &8415630316636694371
GameObject:
  m_ObjectHideFlags: 0
  m_CorrespondingSourceObject: {fileID: 0}
  m_PrefabInstance: {fileID: 0}
  m_PrefabAsset: {fileID: 0}
  serializedVersion: 6
  m_Component:
  - component: {fileID: 1617857800121189459}
  m_Layer: 6
  m_Name: hornB_03_l
  m_TagString: Untagged
  m_Icon: {fileID: 0}
  m_NavMeshLayer: 0
  m_StaticEditorFlags: 0
  m_IsActive: 1
--- !u!4 &1617857800121189459
Transform:
  m_ObjectHideFlags: 0
  m_CorrespondingSourceObject: {fileID: 0}
  m_PrefabInstance: {fileID: 0}
  m_PrefabAsset: {fileID: 0}
  m_GameObject: {fileID: 8415630316636694371}
  m_LocalRotation: {x: 2.3129124e-18, y: -0.7257409, z: -2.3129124e-18, w: 0.6879682}
  m_LocalPosition: {x: -0.2914453, y: 8.946976e-13, z: -2.131628e-15}
  m_LocalScale: {x: 1, y: 1, z: 1}
  m_Children: []
  m_Father: {fileID: 111471470414272800}
  m_RootOrder: 0
  m_LocalEulerAnglesHint: {x: 0, y: 0, z: 0}
--- !u!1 &8663930913826953737
GameObject:
  m_ObjectHideFlags: 0
  m_CorrespondingSourceObject: {fileID: 0}
  m_PrefabInstance: {fileID: 0}
  m_PrefabAsset: {fileID: 0}
  serializedVersion: 6
  m_Component:
  - component: {fileID: 6206285906987827307}
  m_Layer: 6
  m_Name: upperJaw_r
  m_TagString: Untagged
  m_Icon: {fileID: 0}
  m_NavMeshLayer: 0
  m_StaticEditorFlags: 0
  m_IsActive: 1
--- !u!4 &6206285906987827307
Transform:
  m_ObjectHideFlags: 0
  m_CorrespondingSourceObject: {fileID: 0}
  m_PrefabInstance: {fileID: 0}
  m_PrefabAsset: {fileID: 0}
  m_GameObject: {fileID: 8663930913826953737}
  m_LocalRotation: {x: 0.70580983, y: -0.0022091598, z: 0.0003184791, w: 0.7083978}
  m_LocalPosition: {x: 0.24130988, y: 0.13323241, z: -0.0005894659}
  m_LocalScale: {x: 1, y: 1, z: 1}
  m_Children: []
  m_Father: {fileID: 2267281236069501966}
  m_RootOrder: 3
  m_LocalEulerAnglesHint: {x: 0, y: 0, z: 0}
--- !u!1 &8687939989751725249
GameObject:
  m_ObjectHideFlags: 0
  m_CorrespondingSourceObject: {fileID: 0}
  m_PrefabInstance: {fileID: 0}
  m_PrefabAsset: {fileID: 0}
  serializedVersion: 6
  m_Component:
  - component: {fileID: 9043589632627961925}
  m_Layer: 6
  m_Name: root
  m_TagString: Untagged
  m_Icon: {fileID: 0}
  m_NavMeshLayer: 0
  m_StaticEditorFlags: 0
  m_IsActive: 1
--- !u!4 &9043589632627961925
Transform:
  m_ObjectHideFlags: 0
  m_CorrespondingSourceObject: {fileID: 0}
  m_PrefabInstance: {fileID: 0}
  m_PrefabAsset: {fileID: 0}
  m_GameObject: {fileID: 8687939989751725249}
  m_LocalRotation: {x: -0.7071068, y: 0, z: -0, w: 0.7071068}
  m_LocalPosition: {x: -0, y: 0, z: 0}
  m_LocalScale: {x: 1, y: 1, z: 1}
  m_Children:
  - {fileID: 6774633103625404552}
  m_Father: {fileID: 5159228069126568913}
  m_RootOrder: 5
  m_LocalEulerAnglesHint: {x: 0, y: 0, z: 0}
--- !u!1 &8754082814223993061
GameObject:
  m_ObjectHideFlags: 0
  m_CorrespondingSourceObject: {fileID: 0}
  m_PrefabInstance: {fileID: 0}
  m_PrefabAsset: {fileID: 0}
  serializedVersion: 6
  m_Component:
  - component: {fileID: 5533906102648240451}
  m_Layer: 6
  m_Name: LowerJaw_r
  m_TagString: Untagged
  m_Icon: {fileID: 0}
  m_NavMeshLayer: 0
  m_StaticEditorFlags: 0
  m_IsActive: 1
--- !u!4 &5533906102648240451
Transform:
  m_ObjectHideFlags: 0
  m_CorrespondingSourceObject: {fileID: 0}
  m_PrefabInstance: {fileID: 0}
  m_PrefabAsset: {fileID: 0}
  m_GameObject: {fileID: 8754082814223993061}
  m_LocalRotation: {x: 0.70580983, y: -0.0022091598, z: 0.0003184791, w: 0.7083978}
  m_LocalPosition: {x: 0.27836862, y: -0.14700456, z: 0.0005698343}
  m_LocalScale: {x: 1, y: 1, z: 1}
  m_Children: []
  m_Father: {fileID: 2267281236069501966}
  m_RootOrder: 1
  m_LocalEulerAnglesHint: {x: 0, y: 0, z: 0}
--- !u!1 &8765930508640805232
GameObject:
  m_ObjectHideFlags: 0
  m_CorrespondingSourceObject: {fileID: 0}
  m_PrefabInstance: {fileID: 0}
  m_PrefabAsset: {fileID: 0}
  serializedVersion: 6
  m_Component:
  - component: {fileID: 2456534581481517074}
  - component: {fileID: 8551951934282557016}
  m_Layer: 6
  m_Name: Nose13
  m_TagString: Untagged
  m_Icon: {fileID: 0}
  m_NavMeshLayer: 0
  m_StaticEditorFlags: 0
  m_IsActive: 1
--- !u!4 &2456534581481517074
Transform:
  m_ObjectHideFlags: 0
  m_CorrespondingSourceObject: {fileID: 0}
  m_PrefabInstance: {fileID: 0}
  m_PrefabAsset: {fileID: 0}
  m_GameObject: {fileID: 8765930508640805232}
  m_LocalRotation: {x: 0, y: -0, z: -0, w: 1}
  m_LocalPosition: {x: -0, y: 0, z: 0}
  m_LocalScale: {x: 1, y: 1, z: 1}
  m_Children: []
  m_Father: {fileID: 3304726918609368932}
  m_RootOrder: 0
  m_LocalEulerAnglesHint: {x: 0, y: 0, z: 0}
--- !u!137 &8551951934282557016
SkinnedMeshRenderer:
  m_ObjectHideFlags: 0
  m_CorrespondingSourceObject: {fileID: 0}
  m_PrefabInstance: {fileID: 0}
  m_PrefabAsset: {fileID: 0}
  m_GameObject: {fileID: 8765930508640805232}
  m_Enabled: 1
  m_CastShadows: 1
  m_ReceiveShadows: 1
  m_DynamicOccludee: 1
  m_StaticShadowCaster: 0
  m_MotionVectors: 1
  m_LightProbeUsage: 1
  m_ReflectionProbeUsage: 1
  m_RayTracingMode: 0
  m_RayTraceProcedural: 0
  m_RenderingLayerMask: 1
  m_RendererPriority: 0
  m_Materials:
  - {fileID: 2100000, guid: f5fb83cc0815eec429d8e3c27094e525, type: 2}
  m_StaticBatchInfo:
    firstSubMesh: 0
    subMeshCount: 0
  m_StaticBatchRoot: {fileID: 0}
  m_ProbeAnchor: {fileID: 0}
  m_LightProbeVolumeOverride: {fileID: 0}
  m_ScaleInLightmap: 1
  m_ReceiveGI: 1
  m_PreserveUVs: 0
  m_IgnoreNormalsForChartDetection: 0
  m_ImportantGI: 0
  m_StitchLightmapSeams: 1
  m_SelectedEditorRenderState: 3
  m_MinimumChartSize: 4
  m_AutoUVMaxDistance: 0.5
  m_AutoUVMaxAngle: 89
  m_LightmapParameters: {fileID: 0}
  m_SortingLayerID: 0
  m_SortingLayer: 0
  m_SortingOrder: 0
  serializedVersion: 2
  m_Quality: 0
  m_UpdateWhenOffscreen: 0
  m_SkinnedMotionVectors: 1
  m_Mesh: {fileID: 2180498484036462287, guid: 7e6fcf30eabcaec43bb46e1d611f9df5, type: 3}
  m_Bones:
  - {fileID: 9043589632627961925}
  - {fileID: 6774633103625404552}
  - {fileID: 6452747152157738658}
  - {fileID: 5826281215127747192}
  - {fileID: 1908796047003164183}
  - {fileID: 8941037273411902607}
  - {fileID: 6911241748742393243}
  - {fileID: 3084064516644617199}
  - {fileID: 5369863300984200627}
  - {fileID: 4370629894795678910}
  - {fileID: 3731956662735818994}
  - {fileID: 7485908624652795727}
  - {fileID: 3133067334561422514}
  - {fileID: 8360814122869198876}
  - {fileID: 1490259298238108995}
  - {fileID: 111471470414272800}
  - {fileID: 1617857800121189459}
  - {fileID: 2495930890019992819}
  - {fileID: 4187420402931764656}
  - {fileID: 3073728468277439952}
  - {fileID: 3008700734592211699}
  - {fileID: 6934331374597603226}
  - {fileID: 4068756319112088880}
  - {fileID: 8571771992253332423}
  - {fileID: 6878682751172195402}
  - {fileID: 2305774594062624554}
  - {fileID: 5334230550543772557}
  - {fileID: 7445394513094630820}
  - {fileID: 6621843516108669347}
  - {fileID: 7984358920706417436}
  - {fileID: 729765173281850776}
  - {fileID: 94898364965929039}
  - {fileID: 7483853432533810658}
  - {fileID: 5899325427943692780}
  - {fileID: 2247638118362572083}
  - {fileID: 1162167969366848456}
  - {fileID: 1455654243838238831}
  - {fileID: 2267281236069501966}
  - {fileID: 6886303157918058656}
  - {fileID: 2750957032992240303}
  - {fileID: 6206285906987827307}
  - {fileID: 5533906102648240451}
  - {fileID: 361020150149000171}
  - {fileID: 7521081211250957379}
  - {fileID: 2667347841406956250}
  - {fileID: 9128612315683750238}
  - {fileID: 4695395914520231316}
  - {fileID: 6315707854114896393}
  - {fileID: 7617020266490363076}
  - {fileID: 1531385316315636189}
  - {fileID: 5163321031199741170}
  - {fileID: 8872634055185608102}
  - {fileID: 8232324365434380373}
  - {fileID: 560071389976804984}
  - {fileID: 3642371643029039977}
  m_BlendShapeWeights: []
  m_RootBone: {fileID: 9043589632627961925}
  m_AABB:
    m_Center: {x: 0, y: -0.2739394, z: 1.2764723}
    m_Extent: {x: 0.098035, y: 0.080112934, z: 0.11038482}
  m_DirtyAABB: 0
--- !u!1 &8936578977259708788
GameObject:
  m_ObjectHideFlags: 0
  m_CorrespondingSourceObject: {fileID: 0}
  m_PrefabInstance: {fileID: 0}
  m_PrefabAsset: {fileID: 0}
  serializedVersion: 6
  m_Component:
  - component: {fileID: 111471470414272800}
  m_Layer: 6
  m_Name: hornB_02_l
  m_TagString: Untagged
  m_Icon: {fileID: 0}
  m_NavMeshLayer: 0
  m_StaticEditorFlags: 0
  m_IsActive: 1
--- !u!4 &111471470414272800
Transform:
  m_ObjectHideFlags: 0
  m_CorrespondingSourceObject: {fileID: 0}
  m_PrefabInstance: {fileID: 0}
  m_PrefabAsset: {fileID: 0}
  m_GameObject: {fileID: 8936578977259708788}
  m_LocalRotation: {x: 0, y: 0.43467525, z: -0, w: 0.9005873}
  m_LocalPosition: {x: -0.21829395, y: -7.105427e-17, z: 1.4210854e-15}
  m_LocalScale: {x: 1, y: 1, z: 1}
  m_Children:
  - {fileID: 1617857800121189459}
  m_Father: {fileID: 1490259298238108995}
  m_RootOrder: 0
  m_LocalEulerAnglesHint: {x: 0, y: 0, z: 0}
--- !u!1 &9080864229651604120
GameObject:
  m_ObjectHideFlags: 0
  m_CorrespondingSourceObject: {fileID: 0}
  m_PrefabInstance: {fileID: 0}
  m_PrefabAsset: {fileID: 0}
  serializedVersion: 6
  m_Component:
  - component: {fileID: 6452747152157738658}
  m_Layer: 6
  m_Name: spine_01
  m_TagString: Untagged
  m_Icon: {fileID: 0}
  m_NavMeshLayer: 0
  m_StaticEditorFlags: 0
  m_IsActive: 1
--- !u!4 &6452747152157738658
Transform:
  m_ObjectHideFlags: 0
  m_CorrespondingSourceObject: {fileID: 0}
  m_PrefabInstance: {fileID: 0}
  m_PrefabAsset: {fileID: 0}
  m_GameObject: {fileID: 9080864229651604120}
  m_LocalRotation: {x: 2.2397977e-18, y: 5.568265e-17, z: -0.10232073, w: 0.99475145}
  m_LocalPosition: {x: -0.14028804, y: 0.0061973166, z: 2.2516412e-17}
  m_LocalScale: {x: 1, y: 1, z: 1}
  m_Children:
  - {fileID: 361020150149000171}
  - {fileID: 5826281215127747192}
  m_Father: {fileID: 6774633103625404552}
  m_RootOrder: 0
  m_LocalEulerAnglesHint: {x: 0, y: 0, z: 0}
--- !u!1 &9104243264720580198
GameObject:
  m_ObjectHideFlags: 0
  m_CorrespondingSourceObject: {fileID: 0}
  m_PrefabInstance: {fileID: 0}
  m_PrefabAsset: {fileID: 0}
  serializedVersion: 6
  m_Component:
  - component: {fileID: 3642371643029039977}
  m_Layer: 6
  m_Name: ball_r
  m_TagString: Untagged
  m_Icon: {fileID: 0}
  m_NavMeshLayer: 0
  m_StaticEditorFlags: 0
  m_IsActive: 1
--- !u!4 &3642371643029039977
Transform:
  m_ObjectHideFlags: 0
  m_CorrespondingSourceObject: {fileID: 0}
  m_PrefabInstance: {fileID: 0}
  m_PrefabAsset: {fileID: 0}
  m_GameObject: {fileID: 9104243264720580198}
  m_LocalRotation: {x: -0.018653171, y: -0.018653171, z: 0.7068607, w: 0.7068607}
  m_LocalPosition: {x: -0.018659646, y: 0.0832196, z: -0.0010736184}
  m_LocalScale: {x: 1, y: 1, z: 1}
  m_Children: []
  m_Father: {fileID: 560071389976804984}
  m_RootOrder: 0
  m_LocalEulerAnglesHint: {x: 0, y: 0, z: 0}
